<?xml version="1.0" encoding="UTF-8" standalone="no"?>
<!-- Created with Inkscape (http://www.inkscape.org/) -->

<svg
   width="118.51499mm"
   height="33.822411mm"
   viewBox="0 0 118.51499 33.822409"
   version="1.1"
   id="svg1"
   inkscape:version="1.4 (e7c3feb1, 2024-10-09)"
   sodipodi:docname="open-codes.svg"
   xml:space="preserve"
   xmlns:inkscape="http://www.inkscape.org/namespaces/inkscape"
   xmlns:sodipodi="http://sodipodi.sourceforge.net/DTD/sodipodi-0.dtd"
   xmlns="http://www.w3.org/2000/svg"
   xmlns:svg="http://www.w3.org/2000/svg"><sodipodi:namedview
     id="namedview1"
     pagecolor="#ffffff"
     bordercolor="#000000"
     borderopacity="0.25"
     inkscape:showpageshadow="2"
     inkscape:pageopacity="0.0"
     inkscape:pagecheckerboard="0"
     inkscape:deskcolor="#d1d1d1"
     inkscape:document-units="mm"
     inkscape:zoom="0.35334481"
     inkscape:cx="254.70871"
     inkscape:cy="220.74754"
     inkscape:window-width="1472"
     inkscape:window-height="819"
     inkscape:window-x="0"
     inkscape:window-y="38"
     inkscape:window-maximized="0"
     inkscape:current-layer="layer1" /><defs
     id="defs1" /><g
     inkscape:label="Layer 1"
     inkscape:groupmode="layer"
     id="layer1"
     transform="translate(72.440022,0.04028767)"><rect
       style="fill:none;fill-opacity:1;stroke:#000000;stroke-width:1.1;stroke-dasharray:none;stroke-opacity:1"
       id="rect9"
       width="37.563213"
       height="25.036835"
       x="7.9617591"
       y="4.9525123"
       ry="0" /><path
       style="fill:none;fill-opacity:1;stroke:#000000;stroke-width:1.1;stroke-dasharray:none;stroke-opacity:1"
       d="M 7.5208905,10.476597 H 45.100024"
       id="path9" /><rect
       style="fill:none;stroke:#000000;stroke-width:1.1;stroke-dasharray:none"
       id="rect1"
       width="41.907417"
       height="25.190123"
       x="-71.890022"
       y="0.50971234"
       rx="3.831136"
       ry="2.6190121" /><rect
       style="fill:none;stroke:#000000;stroke-width:1.1;stroke-dasharray:none"
       id="rect4"
       width="37.915569"
       height="19.955647"
       x="-69.955597"
       y="2.6947656"
       rx="0.42651722"
       ry="2.4231029" /><rect
       style="fill:none;stroke:#000000;stroke-width:1.1;stroke-dasharray:none"
       id="rect5"
       width="15.775991"
       height="32.597927"
       x="-27.166685"
       y="0.63419545"
       rx="0.42651722"
       ry="2.4231029" /><ellipse
       style="fill:none;stroke:#000000;stroke-width:1.1;stroke-dasharray:none"
       id="path6"
       cx="-19.026579"
       cy="23.123922"
       rx="2.1628375"
       ry="2.0524619" /><rect
       style="fill:none;stroke:#000000;stroke-width:1.1;stroke-dasharray:none"
       id="rect6"
       width="14.719701"
       height="4.0684037"
       x="-26.661522"
       y="14.534533"
       rx="0.45691651"
       ry="2.4015453" /><path
       style="fill:none;stroke:#000000;stroke-width:1.1;stroke-dasharray:none"
       d="m -62.228959,32.985446 h 23.607728"
       id="path7" /><rect
       style="fill:none;stroke:#000000;stroke-width:1.1;stroke-dasharray:none"
       id="rect7"
       width="4.4852476"
       height="7.0104642"
       x="-52.826008"
       y="25.746532"
       rx="0.42651722"
       ry="2.4231029" /></g></svg>
