<?xml version="1.0" encoding="UTF-8" standalone="no"?>
<!-- Created with Inkscape (http://www.inkscape.org/) -->

<svg
   width="406.39999mm"
   height="67.73333mm"
   viewBox="0 0 406.4 67.733331"
   version="1.1"
   id="svg1"
   inkscape:version="1.3.2 (091e20e, 2023-11-25)"
   sodipodi:docname="animation.svg"
   xml:space="preserve"
   xmlns:inkscape="http://www.inkscape.org/namespaces/inkscape"
   xmlns:sodipodi="http://sodipodi.sourceforge.net/DTD/sodipodi-0.dtd"
   xmlns="http://www.w3.org/2000/svg"
   xmlns:svg="http://www.w3.org/2000/svg"><sodipodi:namedview
     id="namedview1"
     pagecolor="#ffffff"
     bordercolor="#000000"
     borderopacity="0.25"
     inkscape:showpageshadow="2"
     inkscape:pageopacity="0.0"
     inkscape:pagecheckerboard="0"
     inkscape:deskcolor="#d1d1d1"
     inkscape:document-units="mm"
     inkscape:zoom="0.6694623"
     inkscape:cx="595.25383"
     inkscape:cy="31.368458"
     inkscape:window-width="1472"
     inkscape:window-height="815"
     inkscape:window-x="0"
     inkscape:window-y="38"
     inkscape:window-maximized="0"
     inkscape:current-layer="layer1" /><defs
     id="defs1"><inkscape:path-effect
       effect="bspline"
       id="path-effect4-3-7-4"
       is_visible="true"
       lpeversion="1.3"
       weight="33.333333"
       steps="2"
       helper_size="0"
       apply_no_weight="true"
       apply_with_weight="true"
       only_selected="false"
       uniform="false" /><inkscape:path-effect
       effect="bspline"
       id="path-effect8-8"
       is_visible="true"
       lpeversion="1.3"
       weight="33.333333"
       steps="2"
       helper_size="0"
       apply_no_weight="true"
       apply_with_weight="true"
       only_selected="false"
       uniform="false" /><inkscape:path-effect
       effect="bspline"
       id="path-effect4-3-3"
       is_visible="true"
       lpeversion="1.3"
       weight="33.333333"
       steps="2"
       helper_size="0"
       apply_no_weight="true"
       apply_with_weight="true"
       only_selected="false"
       uniform="false" /><inkscape:path-effect
       effect="bspline"
       id="path-effect4-3-7-4-1"
       is_visible="true"
       lpeversion="1.3"
       weight="33.333333"
       steps="2"
       helper_size="0"
       apply_no_weight="true"
       apply_with_weight="true"
       only_selected="false"
       uniform="false" /><inkscape:path-effect
       effect="bspline"
       id="path-effect8-8-4"
       is_visible="true"
       lpeversion="1.3"
       weight="33.333333"
       steps="2"
       helper_size="0"
       apply_no_weight="true"
       apply_with_weight="true"
       only_selected="false"
       uniform="false" /><inkscape:path-effect
       effect="bspline"
       id="path-effect4-3-7-4-9"
       is_visible="true"
       lpeversion="1.3"
       weight="33.333333"
       steps="2"
       helper_size="0"
       apply_no_weight="true"
       apply_with_weight="true"
       only_selected="false"
       uniform="false" /><inkscape:path-effect
       effect="bspline"
       id="path-effect8-8-41"
       is_visible="true"
       lpeversion="1.3"
       weight="33.333333"
       steps="2"
       helper_size="0"
       apply_no_weight="true"
       apply_with_weight="true"
       only_selected="false"
       uniform="false" /><inkscape:path-effect
       effect="bspline"
       id="path-effect4-3-3-3"
       is_visible="true"
       lpeversion="1.3"
       weight="33.333333"
       steps="2"
       helper_size="0"
       apply_no_weight="true"
       apply_with_weight="true"
       only_selected="false"
       uniform="false" /><inkscape:path-effect
       effect="bspline"
       id="path-effect8-8-41-8"
       is_visible="true"
       lpeversion="1.3"
       weight="33.333333"
       steps="2"
       helper_size="0"
       apply_no_weight="true"
       apply_with_weight="true"
       only_selected="false"
       uniform="false" /><inkscape:path-effect
       effect="bspline"
       id="path-effect4-3-3-3-6"
       is_visible="true"
       lpeversion="1.3"
       weight="33.333333"
       steps="2"
       helper_size="0"
       apply_no_weight="true"
       apply_with_weight="true"
       only_selected="false"
       uniform="false" /><inkscape:path-effect
       effect="bspline"
       id="path-effect4-3-7-4-1-9"
       is_visible="true"
       lpeversion="1.3"
       weight="33.333333"
       steps="2"
       helper_size="0"
       apply_no_weight="true"
       apply_with_weight="true"
       only_selected="false"
       uniform="false" /><inkscape:path-effect
       effect="bspline"
       id="path-effect4-3-7-4-1-9-3"
       is_visible="true"
       lpeversion="1.3"
       weight="33.333333"
       steps="2"
       helper_size="0"
       apply_no_weight="true"
       apply_with_weight="true"
       only_selected="false"
       uniform="false" /><inkscape:path-effect
       effect="bspline"
       id="path-effect8-8-3"
       is_visible="true"
       lpeversion="1.3"
       weight="33.333333"
       steps="2"
       helper_size="0"
       apply_no_weight="true"
       apply_with_weight="true"
       only_selected="false"
       uniform="false" /><inkscape:path-effect
       effect="bspline"
       id="path-effect1"
       is_visible="true"
       lpeversion="1.3"
       weight="33.333333"
       steps="2"
       helper_size="0"
       apply_no_weight="true"
       apply_with_weight="true"
       only_selected="false"
       uniform="false" /><inkscape:path-effect
       effect="bspline"
       id="path-effect1-9"
       is_visible="true"
       lpeversion="1.3"
       weight="33.333333"
       steps="2"
       helper_size="0"
       apply_no_weight="true"
       apply_with_weight="true"
       only_selected="false"
       uniform="false" /><inkscape:path-effect
       effect="bspline"
       id="path-effect1-2"
       is_visible="true"
       lpeversion="1.3"
       weight="33.333333"
       steps="2"
       helper_size="0"
       apply_no_weight="true"
       apply_with_weight="true"
       only_selected="false"
       uniform="false" /><inkscape:path-effect
       effect="bspline"
       id="path-effect1-9-3"
       is_visible="true"
       lpeversion="1.3"
       weight="33.333333"
       steps="2"
       helper_size="0"
       apply_no_weight="true"
       apply_with_weight="true"
       only_selected="false"
       uniform="false" /><inkscape:path-effect
       effect="bspline"
       id="path-effect1-5"
       is_visible="true"
       lpeversion="1.3"
       weight="33.333333"
       steps="2"
       helper_size="0"
       apply_no_weight="true"
       apply_with_weight="true"
       only_selected="false"
       uniform="false" /><inkscape:path-effect
       effect="bspline"
       id="path-effect1-9-4"
       is_visible="true"
       lpeversion="1.3"
       weight="33.333333"
       steps="2"
       helper_size="0"
       apply_no_weight="true"
       apply_with_weight="true"
       only_selected="false"
       uniform="false" /></defs><g
     inkscape:label="Layer 1"
     inkscape:groupmode="layer"
     id="layer1"
     transform="translate(78.917969,0.6850875)"><rect
       style="display:inline;fill:#f8d6d7;fill-opacity:1;stroke:#1a014c;stroke-width:0.0865957;stroke-dasharray:none;stroke-opacity:1"
       id="rect4-8"
       width="41.794106"
       height="23.608038"
       x="4.8805342"
       y="27.065462"
       ry="11.64083" /><rect
       style="display:inline;fill:#f8d6d7;fill-opacity:1;stroke:#1a014c;stroke-width:0.0865957;stroke-dasharray:none;stroke-opacity:1"
       id="rect4-8-7"
       width="41.794106"
       height="23.608038"
       x="136.64351"
       y="27.275303"
       ry="11.64083" /><rect
       style="display:inline;fill:#f8d6d7;fill-opacity:1;stroke:#1a014c;stroke-width:0.0865957;stroke-dasharray:none;stroke-opacity:1"
       id="rect4-8-1"
       width="41.794106"
       height="23.608038"
       x="70.118042"
       y="27.20253"
       ry="11.64083" /><rect
       style="display:inline;fill:#f8d6d7;fill-opacity:1;stroke:#1a014c;stroke-width:0.0865957;stroke-dasharray:none;stroke-opacity:1"
       id="rect4"
       width="41.794106"
       height="23.608038"
       x="-64.335907"
       y="27.322704"
       ry="11.64083" /><rect
       style="display:inline;fill:#f8d6d7;fill-opacity:1;stroke:#1a014c;stroke-width:0.0865957;stroke-dasharray:none;stroke-opacity:1"
       id="rect4-8-7-7"
       width="41.794106"
       height="23.608038"
       x="274.88843"
       y="27.247925"
       ry="11.64083" /><ellipse
       style="display:inline;fill:#fbfcfa;fill-opacity:1;stroke:none;stroke-width:0.928401;stroke-dasharray:none;stroke-opacity:1"
       id="path5"
       cx="-29.22261"
       cy="36.606915"
       rx="2.5719225"
       ry="4.1760039" /><ellipse
       style="display:inline;fill:#010200;fill-opacity:1;stroke:none;stroke-width:0.865957;stroke-dasharray:none;stroke-opacity:1"
       id="path6"
       cx="-27.77758"
       cy="37.338367"
       rx="1.2263528"
       ry="2.127763" /><ellipse
       style="display:inline;fill:#fbfcfa;fill-opacity:1;stroke:none;stroke-width:0.928401;stroke-dasharray:none;stroke-opacity:1"
       id="path5-0"
       cx="39.730995"
       cy="35.504246"
       rx="2.5719225"
       ry="4.1760039" /><ellipse
       style="display:inline;fill:#010200;fill-opacity:1;stroke:none;stroke-width:0.865957;stroke-dasharray:none;stroke-opacity:1"
       id="path6-3"
       cx="41.176025"
       cy="36.235699"
       rx="1.2263528"
       ry="2.127763" /><ellipse
       style="display:inline;fill:#fbfcfa;fill-opacity:1;stroke:none;stroke-width:0.928401;stroke-dasharray:none;stroke-opacity:1"
       id="path5-0-4"
       cx="104.77345"
       cy="35.526039"
       rx="2.5719225"
       ry="4.1760039" /><ellipse
       style="display:inline;fill:#010200;fill-opacity:1;stroke:none;stroke-width:0.865957;stroke-dasharray:none;stroke-opacity:1"
       id="path6-3-8"
       cx="106.21849"
       cy="36.257492"
       rx="1.2263528"
       ry="2.127763" /><rect
       style="display:inline;fill:#f8d6d7;fill-opacity:1;stroke:#1a014c;stroke-width:0.0865957;stroke-dasharray:none;stroke-opacity:1"
       id="rect4-8-1-1"
       width="41.794106"
       height="23.608038"
       x="207.21378"
       y="27.262007"
       ry="11.64083" /><ellipse
       style="display:inline;fill:#fbfcfa;fill-opacity:1;stroke:none;stroke-width:0.928401;stroke-dasharray:none;stroke-opacity:1"
       id="path5-0-2"
       cx="308.58936"
       cy="35.563721"
       rx="2.5719225"
       ry="4.1760039" /><ellipse
       style="display:inline;fill:#010200;fill-opacity:1;stroke:none;stroke-width:0.865957;stroke-dasharray:none;stroke-opacity:1"
       id="path6-3-3"
       cx="310.03439"
       cy="36.295174"
       rx="1.2263528"
       ry="2.127763" /><path
       style="display:inline;fill:#1a014c;fill-opacity:1;stroke:none;stroke-width:0.1;stroke-dasharray:none;stroke-opacity:1"
       d="m 62.259439,40.816164 c 0.887307,-0.443654 1.774616,-0.887308 2.661932,-0.911952 0.887316,-0.02464 1.774607,0.369707 2.267556,0.616182 0.492949,0.246474 0.591538,0.345065 0.690127,0.443654"
       id="path7"
       inkscape:path-effect="#path-effect8-8-3"
       inkscape:original-d="m 62.259439,40.816164 c 0.887307,-0.443653 1.774616,-0.887309 2.661923,-1.330962 0.887325,0.394366 1.774616,0.788717 2.661925,1.183076 0.09859,0.09859 0.197178,0.197181 0.295767,0.29577"
       transform="translate(104.94857,-4.8028839)" /><path
       style="display:inline;fill:#1a014c;fill-opacity:1;stroke:none;stroke-width:0.1;stroke-dasharray:none;stroke-opacity:1"
       d="m 62.259439,40.816164 c 0.887307,-0.443654 1.774616,-0.887308 2.661932,-0.911952 0.887316,-0.02464 1.774607,0.369707 2.267556,0.616182 0.492949,0.246474 0.591538,0.345065 0.690127,0.443654"
       id="path7-8"
       inkscape:path-effect="#path-effect8-8-41"
       inkscape:original-d="m 62.259439,40.816164 c 0.887307,-0.443653 1.774616,-0.887309 2.661923,-1.330962 0.887325,0.394366 1.774616,0.788717 2.661925,1.183076 0.09859,0.09859 0.197178,0.197181 0.295767,0.29577"
       transform="translate(176.14259,-4.900967)" /><path
       style="fill:none;fill-opacity:1;stroke:#f5d4dc;stroke-width:4.54031;stroke-dasharray:none;stroke-opacity:1"
       d="m -46.935615,91.282607 c 0,-5.551469 0,-11.102938 -0.147386,-14.050624 -0.147387,-2.947685 -0.44215,-3.291576 -1.080824,-3.807427 -0.638674,-0.515851 -1.621215,-1.20363 -2.480964,-1.915994 -0.859749,-0.712365 -1.596653,-1.449269 -1.915984,-2.186197 -0.319332,-0.736928 -0.221078,-1.473835 0.908888,-2.407279 1.129967,-0.933443 3.291558,-2.063366 5.477778,-3.291581 2.18622,-1.228214 4.396938,-2.554645 5.747964,-3.660035 1.351026,-1.105389 1.842298,-1.989677 1.44926,-2.898555 -0.393038,-0.908878 -1.670342,-1.842292 -4.077651,-3.045943 -2.407309,-1.203652 -5.944457,-2.677464 -8.450002,-3.905675 -2.505545,-1.228211 -3.979357,-2.210752 -4.396939,-3.0705 -0.417583,-0.859748 0.22107,-1.596654 2.898596,-2.628356 2.677526,-1.031702 7.393721,-2.358131 10.243158,-3.095053 2.849436,-0.736922 3.831977,-0.884304 4.814539,-1.031688"
       id="path1"
       inkscape:path-effect="#path-effect1"
       inkscape:original-d="m -46.935615,91.282607 c 0,-5.551469 0,-11.102938 0,-16.654407 -0.294772,-0.343903 -0.589537,-0.687792 -0.884304,-1.03169 -0.98258,-0.687805 -1.965121,-1.375584 -2.947683,-2.063376 -0.736936,-0.736937 -1.47384,-1.473841 -2.210761,-2.210764 0.09826,-0.736933 0.196512,-1.47384 0.294768,-2.21076 2.161677,-1.129967 4.323268,-2.259891 6.484903,-3.389836 2.210805,-1.326484 4.421523,-2.652914 6.632284,-3.979371 0.491291,-0.884322 0.982562,-1.76861 1.473843,-2.652913 -1.277356,-0.933453 -2.554661,-1.866866 -3.83199,-2.8003 -3.537288,-1.473869 -7.074437,-2.94768 -10.611656,-4.421523 -1.47387,-0.982581 -2.947682,-1.965122 -4.421523,-2.947684 0.638677,-0.736933 1.277329,-1.47384 1.915993,-2.21076 4.716388,-1.326483 9.432583,-2.652913 14.148876,-3.97937 0.98258,-0.147389 1.965121,-0.29477 2.947683,-0.442153"
       transform="matrix(0,-0.34167205,0.14197767,0,-77.766257,23.670823)" /><path
       style="fill:none;fill-opacity:1;stroke:#f5d4dc;stroke-width:4.54031;stroke-dasharray:none;stroke-opacity:1"
       d="m -46.935615,91.282607 c 0,-5.551469 0,-11.102938 -0.147386,-14.050624 -0.147387,-2.947685 -0.44215,-3.291576 -1.080824,-3.807427 -0.638674,-0.515851 -1.621215,-1.20363 -2.480964,-1.915994 -0.859749,-0.712365 -1.596653,-1.449269 -1.915984,-2.186197 -0.319332,-0.736928 -0.221078,-1.473835 0.908888,-2.407279 1.129967,-0.933443 3.291558,-2.063366 5.477778,-3.291581 2.18622,-1.228214 4.396938,-2.554645 5.747964,-3.660035 1.351026,-1.105389 1.842298,-1.989677 1.44926,-2.898555 -0.393038,-0.908878 -1.670342,-1.842292 -4.077651,-3.045943 -2.407309,-1.203652 -5.944457,-2.677464 -8.450002,-3.905675 -2.505545,-1.228211 -3.979357,-2.210752 -4.396939,-3.0705 -0.417583,-0.859748 0.22107,-1.596654 2.898596,-2.628356 2.677526,-1.031702 7.393721,-2.358131 10.243158,-3.095053 2.849436,-0.736922 3.831977,-0.884304 4.814539,-1.031688"
       id="path1-6"
       inkscape:path-effect="#path-effect1-9"
       inkscape:original-d="m -46.935615,91.282607 c 0,-5.551469 0,-11.102938 0,-16.654407 -0.294772,-0.343903 -0.589537,-0.687792 -0.884304,-1.03169 -0.98258,-0.687805 -1.965121,-1.375584 -2.947683,-2.063376 -0.736936,-0.736937 -1.47384,-1.473841 -2.210761,-2.210764 0.09826,-0.736933 0.196512,-1.47384 0.294768,-2.21076 2.161677,-1.129967 4.323268,-2.259891 6.484903,-3.389836 2.210805,-1.326484 4.421523,-2.652914 6.632284,-3.979371 0.491291,-0.884322 0.982562,-1.76861 1.473843,-2.652913 -1.277356,-0.933453 -2.554661,-1.866866 -3.83199,-2.8003 -3.537288,-1.473869 -7.074437,-2.94768 -10.611656,-4.421523 -1.47387,-0.982581 -2.947682,-1.965122 -4.421523,-2.947684 0.638677,-0.736933 1.277329,-1.47384 1.915993,-2.21076 4.716388,-1.326483 9.432583,-2.652913 14.148876,-3.97937 0.98258,-0.147389 1.965121,-0.29477 2.947683,-0.442153"
       transform="matrix(0,0.34167205,0.14197767,0,-8.6373704,55.762356)" /><path
       style="fill:none;fill-opacity:1;stroke:#f5d4dc;stroke-width:4.54031;stroke-dasharray:none;stroke-opacity:1"
       d="m -46.935615,91.282607 c 0,-5.551469 0,-11.102938 -0.147386,-14.050624 -0.147387,-2.947685 -0.44215,-3.291576 -1.080824,-3.807427 -0.638674,-0.515851 -1.621215,-1.20363 -2.480964,-1.915994 -0.859749,-0.712365 -1.596653,-1.449269 -1.915984,-2.186197 -0.319332,-0.736928 -0.221078,-1.473835 0.908888,-2.407279 1.129967,-0.933443 3.291558,-2.063366 5.477778,-3.291581 2.18622,-1.228214 4.396938,-2.554645 5.747964,-3.660035 1.351026,-1.105389 1.842298,-1.989677 1.44926,-2.898555 -0.393038,-0.908878 -1.670342,-1.842292 -4.077651,-3.045943 -2.407309,-1.203652 -5.944457,-2.677464 -8.450002,-3.905675 -2.505545,-1.228211 -3.979357,-2.210752 -4.396939,-3.0705 -0.417583,-0.859748 0.22107,-1.596654 2.898596,-2.628356 2.677526,-1.031702 7.393721,-2.358131 10.243158,-3.095053 2.849436,-0.736922 3.831977,-0.884304 4.814539,-1.031688"
       id="path1-5"
       inkscape:path-effect="#path-effect1-2"
       inkscape:original-d="m -46.935615,91.282607 c 0,-5.551469 0,-11.102938 0,-16.654407 -0.294772,-0.343903 -0.589537,-0.687792 -0.884304,-1.03169 -0.98258,-0.687805 -1.965121,-1.375584 -2.947683,-2.063376 -0.736936,-0.736937 -1.47384,-1.473841 -2.210761,-2.210764 0.09826,-0.736933 0.196512,-1.47384 0.294768,-2.21076 2.161677,-1.129967 4.323268,-2.259891 6.484903,-3.389836 2.210805,-1.326484 4.421523,-2.652914 6.632284,-3.979371 0.491291,-0.884322 0.982562,-1.76861 1.473843,-2.652913 -1.277356,-0.933453 -2.554661,-1.866866 -3.83199,-2.8003 -3.537288,-1.473869 -7.074437,-2.94768 -10.611656,-4.421523 -1.47387,-0.982581 -2.947682,-1.965122 -4.421523,-2.947684 0.638677,-0.736933 1.277329,-1.47384 1.915993,-2.21076 4.716388,-1.326483 9.432583,-2.652913 14.148876,-3.97937 0.98258,-0.147389 1.965121,-0.29477 2.947683,-0.442153"
       transform="matrix(0,-0.33654762,0.19573085,0,51.852884,22.958485)" /><path
       style="fill:none;fill-opacity:1;stroke:#f5d4dc;stroke-width:4.54031;stroke-dasharray:none;stroke-opacity:1"
       d="m -46.935615,91.282607 c 0,-5.551469 0,-11.102938 -0.147386,-14.050624 -0.147387,-2.947685 -0.44215,-3.291576 -1.080824,-3.807427 -0.638674,-0.515851 -1.621215,-1.20363 -2.480964,-1.915994 -0.859749,-0.712365 -1.596653,-1.449269 -1.915984,-2.186197 -0.319332,-0.736928 -0.221078,-1.473835 0.908888,-2.407279 1.129967,-0.933443 3.291558,-2.063366 5.477778,-3.291581 2.18622,-1.228214 4.396938,-2.554645 5.747964,-3.660035 1.351026,-1.105389 1.842298,-1.989677 1.44926,-2.898555 -0.393038,-0.908878 -1.670342,-1.842292 -4.077651,-3.045943 -2.407309,-1.203652 -5.944457,-2.677464 -8.450002,-3.905675 -2.505545,-1.228211 -3.979357,-2.210752 -4.396939,-3.0705 -0.417583,-0.859748 0.22107,-1.596654 2.898596,-2.628356 2.677526,-1.031702 7.393721,-2.358131 10.243158,-3.095053 2.849436,-0.736922 3.831977,-0.884304 4.814539,-1.031688"
       id="path1-6-5"
       inkscape:path-effect="#path-effect1-9-3"
       inkscape:original-d="m -46.935615,91.282607 c 0,-5.551469 0,-11.102938 0,-16.654407 -0.294772,-0.343903 -0.589537,-0.687792 -0.884304,-1.03169 -0.98258,-0.687805 -1.965121,-1.375584 -2.947683,-2.063376 -0.736936,-0.736937 -1.47384,-1.473841 -2.210761,-2.210764 0.09826,-0.736933 0.196512,-1.47384 0.294768,-2.21076 2.161677,-1.129967 4.323268,-2.259891 6.484903,-3.389836 2.210805,-1.326484 4.421523,-2.652914 6.632284,-3.979371 0.491291,-0.884322 0.982562,-1.76861 1.473843,-2.652913 -1.277356,-0.933453 -2.554661,-1.866866 -3.83199,-2.8003 -3.537288,-1.473869 -7.074437,-2.94768 -10.611656,-4.421523 -1.47387,-0.982581 -2.947682,-1.965122 -4.421523,-2.947684 0.638677,-0.736933 1.277329,-1.47384 1.915993,-2.21076 4.716388,-1.326483 9.432583,-2.652913 14.148876,-3.97937 0.98258,-0.147389 1.965121,-0.29477 2.947683,-0.442153"
       transform="matrix(0,0.33562232,0.20696192,0,117.33827,54.519833)" /><path
       style="fill:none;fill-opacity:1;stroke:#f5d4dc;stroke-width:4.54031;stroke-dasharray:none;stroke-opacity:1"
       d="m -46.935615,91.282607 c 0,-5.551469 0,-11.102938 -0.147386,-14.050624 -0.147387,-2.947685 -0.44215,-3.291576 -1.080824,-3.807427 -0.638674,-0.515851 -1.621215,-1.20363 -2.480964,-1.915994 -0.859749,-0.712365 -1.596653,-1.449269 -1.915984,-2.186197 -0.319332,-0.736928 -0.221078,-1.473835 0.908888,-2.407279 1.129967,-0.933443 3.291558,-2.063366 5.477778,-3.291581 2.18622,-1.228214 4.396938,-2.554645 5.747964,-3.660035 1.351026,-1.105389 1.842298,-1.989677 1.44926,-2.898555 -0.393038,-0.908878 -1.670342,-1.842292 -4.077651,-3.045943 -2.407309,-1.203652 -5.944457,-2.677464 -8.450002,-3.905675 -2.505545,-1.228211 -3.979357,-2.210752 -4.396939,-3.0705 -0.417583,-0.859748 0.22107,-1.596654 2.898596,-2.628356 2.677526,-1.031702 7.393721,-2.358131 10.243158,-3.095053 2.849436,-0.736922 3.831977,-0.884304 4.814539,-1.031688"
       id="path1-1"
       inkscape:path-effect="#path-effect1-5"
       inkscape:original-d="m -46.935615,91.282607 c 0,-5.551469 0,-11.102938 0,-16.654407 -0.294772,-0.343903 -0.589537,-0.687792 -0.884304,-1.03169 -0.98258,-0.687805 -1.965121,-1.375584 -2.947683,-2.063376 -0.736936,-0.736937 -1.47384,-1.473841 -2.210761,-2.210764 0.09826,-0.736933 0.196512,-1.47384 0.294768,-2.21076 2.161677,-1.129967 4.323268,-2.259891 6.484903,-3.389836 2.210805,-1.326484 4.421523,-2.652914 6.632284,-3.979371 0.491291,-0.884322 0.982562,-1.76861 1.473843,-2.652913 -1.277356,-0.933453 -2.554661,-1.866866 -3.83199,-2.8003 -3.537288,-1.473869 -7.074437,-2.94768 -10.611656,-4.421523 -1.47387,-0.982581 -2.947682,-1.965122 -4.421523,-2.947684 0.638677,-0.736933 1.277329,-1.47384 1.915993,-2.21076 4.716388,-1.326483 9.432583,-2.652913 14.148876,-3.97937 0.98258,-0.147389 1.965121,-0.29477 2.947683,-0.442153"
       transform="matrix(0,-0.34538311,0.10936336,0,196.93431,23.068432)" /><path
       style="fill:none;fill-opacity:1;stroke:#f5d4dc;stroke-width:4.54031;stroke-dasharray:none;stroke-opacity:1"
       d="m -46.935615,91.282607 c 0,-5.551469 0,-11.102938 -0.147386,-14.050624 -0.147387,-2.947685 -0.44215,-3.291576 -1.080824,-3.807427 -0.638674,-0.515851 -1.621215,-1.20363 -2.480964,-1.915994 -0.859749,-0.712365 -1.596653,-1.449269 -1.915984,-2.186197 -0.319332,-0.736928 -0.221078,-1.473835 0.908888,-2.407279 1.129967,-0.933443 3.291558,-2.063366 5.477778,-3.291581 2.18622,-1.228214 4.396938,-2.554645 5.747964,-3.660035 1.351026,-1.105389 1.842298,-1.989677 1.44926,-2.898555 -0.393038,-0.908878 -1.670342,-1.842292 -4.077651,-3.045943 -2.407309,-1.203652 -5.944457,-2.677464 -8.450002,-3.905675 -2.505545,-1.228211 -3.979357,-2.210752 -4.396939,-3.0705 -0.417583,-0.859748 0.22107,-1.596654 2.898596,-2.628356 2.677526,-1.031702 7.393721,-2.358131 10.243158,-3.095053 2.849436,-0.736922 3.831977,-0.884304 4.814539,-1.031688"
       id="path1-6-7"
       inkscape:path-effect="#path-effect1-9-4"
       inkscape:original-d="m -46.935615,91.282607 c 0,-5.551469 0,-11.102938 0,-16.654407 -0.294772,-0.343903 -0.589537,-0.687792 -0.884304,-1.03169 -0.98258,-0.687805 -1.965121,-1.375584 -2.947683,-2.063376 -0.736936,-0.736937 -1.47384,-1.473841 -2.210761,-2.210764 0.09826,-0.736933 0.196512,-1.47384 0.294768,-2.21076 2.161677,-1.129967 4.323268,-2.259891 6.484903,-3.389836 2.210805,-1.326484 4.421523,-2.652914 6.632284,-3.979371 0.491291,-0.884322 0.982562,-1.76861 1.473843,-2.652913 -1.277356,-0.933453 -2.554661,-1.866866 -3.83199,-2.8003 -3.537288,-1.473869 -7.074437,-2.94768 -10.611656,-4.421523 -1.47387,-0.982581 -2.947682,-1.965122 -4.421523,-2.947684 0.638677,-0.736933 1.277329,-1.47384 1.915993,-2.21076 4.716388,-1.326483 9.432583,-2.652913 14.148876,-3.97937 0.98258,-0.147389 1.965121,-0.29477 2.947683,-0.442153"
       transform="matrix(0,0.34619129,0.1028673,0,265.06236,55.550471)" /></g></svg>
