%\tikzset{external/export next=false}%
%\tikzsetnextfilename{Exm_enzyme_levels_a-\overlaynumber}%
%\only<1>{%
\begin{tikzpicture}
	\draw [magenta,fill=magenta!30]                        (0,0)   rectangle (2,1.22448979591837);
	\node at ($(0,0)!.5!(2,1.22448979591837)$){$E_1$};
	\draw [structure.fg,fill=structure.fg!30]              (2,0) rectangle (4,1.83673469387755);
	\node at ($(2,0)!.5!(4,1.83673469387755)$){$E_2$};
	\draw [color=-structure.fg,fill=-structure.fg!70!black](4,0) rectangle (6,3.6734693877551);
	\node at ($(4,0)!.5!(6,3.6734693877551)$){$E_3$};
\end{tikzpicture}%}%