!!!SBtab DocumentName='pathway' SBtabVersion='1.0',,,,,,
!!SBtab TableID='Configuration' TableType='Config',,,,,,
!Option,!Value,!Comment,,,,
algorithm,ECM,ECM, or MDF,,,
p_h,7.5 dimensionless,,,,,
p_mg,3 dimensionless,,,,,
ionic_strength,0.25 molar,,,,,
temperature,298.15 kelvin,,,,,
version,3,1-4 (for ECM1 - ECM4),,,,
kcat_source,fwd,'fwd' or 'gmean',,,,
denominator,CM,'S', 'SP', '1S', '1SP', or 'CM'
regularization,volume,None, 'volume', or 'quadratic',,
,,,,,,
!!SBtab TableID='Reaction' TableType='Reaction' TableName='Reaction' SBtabVersion='1.0',,,,,,
!ID,!ReactionFormula,,,,,
pts,glc + pep <=> g6p + pyr,,,,,
zwf,nadp + g6p <=> gluc6p + nadph,,,,,
pgl,gluc6p + h2o <=> 6pg,,,,,
edd,6pg <=> 2ddg6p + h2o,,,,,
eda,2ddg6p <=> g3p + pyr,,,,,
gap,pi + nad + g3p <=> nadh + bpg,,,,,
pgk,bpg + adp <=> 3pg + atp,,,,,
gpm,3pg <=> 2pg,,,,,
eno,2pg <=> pep + h2o,,,,,
pyk,adp + pep <=> atp + pyr,,,,,
pyd,pyr <=> acald + co2,,,,,
adh,acald + nadh = etoh + nad,,,,,
,,,,,,
!!SBtab TableID='Compound' TableType='Compound',,,,,,
!ID,!Identifiers,,,,,
mal,kegg:C00149,,,,,
acecoa,kegg:C00024,,,,,
fum,kegg:C00122,,,,,
aco,kegg:C00417,,,,,
6pg,kegg:C00345,,,,,
pi,kegg:C00009,,,,,
pyr,kegg:C00022,,,,,
nadp,kegg:C00006,,,,,
nadph,kegg:C00005,,,,,
nadh,kegg:C00004,,,,,
nad,kegg:C00003,,,,,
atp,kegg:C00002,,,,,
h2o,kegg:C00001,,,,,
2kg,kegg:C00026,,,,,
oxa,kegg:C00036,,,,,
uql,kegg:C00399,,,,,
e4p,kegg:C00279,,,,,
uqn,kegg:C00390,,,,,
adp,kegg:C00008,,,,,
icit,kegg:C00311,,,,,
ru5p,kegg:C00199,,,,,
xu5p,kegg:C00231,,,,,
g6p,kegg:C00092,,,,,
bpg,kegg:C00236,,,,,
coa,kegg:C00010,,,,,
co2,kegg:C00011,,,,,
r5p,kegg:C00117,,,,,
dhap,kegg:C00111,,,,,
glc,kegg:C00031,,,,,
fbp,kegg:C00354,,,,,
g3p,kegg:C00118,,,,,
pep,kegg:C00074,,,,,
cit,kegg:C00158,,,,,
succoa,kegg:C00091,,,,,
3pg,kegg:C00197,,,,,
gluc6p,kegg:C01236,,,,,
f6p,kegg:C00085,,,,,
2pg,kegg:C00631,,,,,
suc,kegg:C00042,,,,,
s7p,kegg:C05382,,,,,
acald,kegg:C00084,,,,,
etoh,kegg:C00469,,,,,
2ddg6p,kegg:C04442,,,,,
,,,,,,
!!SBtab TableID='ConcentrationConstraint' TableType='Quantity' TableName='ConcentrationConstraint' SBtabVersion='1.0' Unit='mM',,,,,,
!QuantityType,!Compound,!Min,!Max,,,
concentration,h2o,1000,1000,,,
concentration,atp,5,5,,,
concentration,adp,0.5,0.5,,,
concentration,nad,1,1,,,
concentration,pi,10,10,,,
concentration,nadh,0.1,0.1,,,
concentration,co2,0.01,0.01,,,
concentration,pyr,0.001,10,,,
concentration,glc,0.001,10,,,
concentration,pep,0.001,10,,,
concentration,g3p,0.001,10,,,
concentration,acald,0.001,10,,,
concentration,dhap,0.001,10,,,
concentration,3pg,0.001,10,,,
concentration,g6p,0.001,10,,,
concentration,2pg,0.001,10,,,
concentration,etoh,0.001,10,,,
concentration,fdp,0.001,10,,,
concentration,f6p,0.001,10,,,
concentration,bpg,0.001,10,,,
concentration,2ddg6p,0.001,10,,,
,,,,,,
!!SBtab TableID='Flux' TableType='Quantity' TableName='Flux' SBtabVersion='1.0' Unit='mM/s',,,,,,
!QuantityType,!Reaction,!Value,,,,
rate of reaction,pts,0.01,,,,
rate of reaction,zwf,0.01,,,,
rate of reaction,pgl,0.01,,,,
rate of reaction,edd,0.01,,,,
rate of reaction,eda,0.01,,,,
rate of reaction,gap,0.01,,,,
rate of reaction,pgk,0.01,,,,
rate of reaction,gpm,0.01,,,,
rate of reaction,eno,0.01,,,,
rate of reaction,pyk,0.01,,,,
rate of reaction,pyd,0.02,,,,
rate of reaction,adh,0.02,,,,
,,,,,,
!!SBtab TableID='Parameter' TableType='Quantity',,,,,,
!QuantityType,!Reaction,!Compound,!Value,!Unit,,
substrate catalytic rate constant,pts,,200,1/s,,
substrate catalytic rate constant,zwf,,200,1/s,,
substrate catalytic rate constant,pgl,,200,1/s,,
substrate catalytic rate constant,edd,,200,1/s,,
substrate catalytic rate constant,eda,,200,1/s,,
substrate catalytic rate constant,gap,,200,1/s,,
substrate catalytic rate constant,pgk,,200,1/s,,
substrate catalytic rate constant,gpm,,200,1/s,,
substrate catalytic rate constant,eno,,200,1/s,,
substrate catalytic rate constant,pyk,,200,1/s,,
substrate catalytic rate constant,pyd,,200,1/s,,
substrate catalytic rate constant,adh,,200,1/s,,
protein molecular mass,pts,,40,kDa,,
protein molecular mass,zwf,,40,kDa,,
protein molecular mass,pgl,,40,kDa,,
protein molecular mass,edd,,40,kDa,,
protein molecular mass,eda,,40,kDa,,
protein molecular mass,gap,,40,kDa,,
protein molecular mass,pgk,,40,kDa,,
protein molecular mass,gpm,,40,kDa,,
protein molecular mass,eno,,40,kDa,,
protein molecular mass,pyk,,40,kDa,,
protein molecular mass,pyd,,40,kDa,,
protein molecular mass,adh,,40,kDa,,
Michaelis constant,pts,glc,200,uM,,
Michaelis constant,pts,pep,200,uM,,
Michaelis constant,pts,g6p,200,uM,,
Michaelis constant,pts,pyr,200,uM,,
Michaelis constant,zwf,g6p,200,uM,zwf,nadp + g6p <=> gluc6p + nadph
Michaelis constant,zwf,nadp,200,uM,pgl,gluc6p + h2o <=> 6pg
Michaelis constant,zwf,gluc6p,200,uM,edd,6pg <=> 2ddg6p + h2o
Michaelis constant,zwf,nadph,200,uM,eda,2ddg6p <=> g3p + pyr
Michaelis constant,pgl,gluc6p,200,uM,,
Michaelis constant,pgl,6pg,200,uM,,
Michaelis constant,edd,6pg,200,uM,,
Michaelis constant,edd,2ddg6p,200,uM,,
Michaelis constant,eda,2ddg6p,200,uM,,
Michaelis constant,eda,g3p,200,uM,,
Michaelis constant,eda,pyr,200,uM,,
Michaelis constant,gap,pi,200,uM,,
Michaelis constant,gap,nad,200,uM,,
Michaelis constant,gap,g3p,200,uM,,
Michaelis constant,gap,nadh,200,uM,,
Michaelis constant,gap,bpg,200,uM,,
Michaelis constant,pgk,bpg,200,uM,,
Michaelis constant,pgk,adp,200,uM,,
Michaelis constant,pgk,3pg,200,uM,,
Michaelis constant,pgk,atp,200,uM,,
Michaelis constant,gpm,3pg,200,uM,,
Michaelis constant,gpm,2pg,200,uM,,
Michaelis constant,eno,2pg,200,uM,,
Michaelis constant,eno,pep,200,uM,,
Michaelis constant,pyk,adp,200,uM,,
Michaelis constant,pyk,pep,200,uM,,
Michaelis constant,pyk,atp,200,uM,,
Michaelis constant,pyk,pyr,200,uM,,
Michaelis constant,pyd,pyr,200,uM,,
Michaelis constant,pyd,acald,200,uM,,
Michaelis constant,pyd,co2,200,uM,,
Michaelis constant,adh,acald,200,uM,,
Michaelis constant,adh,nadh,200,uM,,
Michaelis constant,adh,etoh,200,uM,,
Michaelis constant,adh,nad,200,uM,,
molecular mass,,mal,134,Da,,
molecular mass,,acecoa,810,Da,,
molecular mass,,fum,116,Da,,
molecular mass,,aco,174,Da,,
molecular mass,,6pg,276,Da,,
molecular mass,,pi,98,Da,,
molecular mass,,pyr,88,Da,,
molecular mass,,nadp,744,Da,,
molecular mass,,nadph,745,Da,,
molecular mass,,nadh,665,Da,,
molecular mass,,nad,664,Da,,
molecular mass,,atp,507,Da,,
molecular mass,,h2o,18,Da,,
molecular mass,,2kg,146,Da,,
molecular mass,,oxa,132,Da,,
molecular mass,,uql,318,Da,,
molecular mass,,e4p,200,Da,,
molecular mass,,uqn,320,Da,,
molecular mass,,adp,427,Da,,
molecular mass,,icit,192,Da,,
molecular mass,,ru5p,230,Da,,
molecular mass,,xu5p,230,Da,,
molecular mass,,g6p,260,Da,,
molecular mass,,bpg,266,Da,,
molecular mass,,coa,768,Da,,
molecular mass,,co2,44,Da,,
molecular mass,,r5p,230,Da,,
molecular mass,,dhap,170,Da,,
molecular mass,,glc,180,Da,,
molecular mass,,fbp,340,Da,,
molecular mass,,g3p,170,Da,,
molecular mass,,pep,168,Da,,
molecular mass,,cit,192,Da,,
molecular mass,,succoa,868,Da,,
molecular mass,,3pg,186,Da,,
molecular mass,,gluc6p,258,Da,,
molecular mass,,f6p,260,Da,,
molecular mass,,2pg,186,Da,,
molecular mass,,suc,118,Da,,
molecular mass,,s7p,290,Da,,
molecular mass,,acald,44,Da,,
molecular mass,,etoh,46,Da,,
molecular mass,,2ddg6p,258,Da,,
