<?xml version="1.0" encoding="UTF-8" standalone="no"?>
<!-- Created with Inkscape (http://www.inkscape.org/) -->

<svg
   width="50.739906mm"
   height="25.677534mm"
   viewBox="0 0 50.739906 25.677534"
   version="1.1"
   id="svg1"
   inkscape:version="1.3.2 (091e20e, 2023-11-25)"
   sodipodi:docname="Coins.svg"
   xmlns:inkscape="http://www.inkscape.org/namespaces/inkscape"
   xmlns:sodipodi="http://sodipodi.sourceforge.net/DTD/sodipodi-0.dtd"
   xmlns="http://www.w3.org/2000/svg"
   xmlns:svg="http://www.w3.org/2000/svg">
  <sodipodi:namedview
     id="namedview1"
     pagecolor="#ffffff"
     bordercolor="#000000"
     borderopacity="0.25"
     inkscape:showpageshadow="2"
     inkscape:pageopacity="0.0"
     inkscape:pagecheckerboard="0"
     inkscape:deskcolor="#d1d1d1"
     inkscape:document-units="mm"
     inkscape:zoom="0.2102413"
     inkscape:cx="233.06553"
     inkscape:cy="242.57841"
     inkscape:window-width="1312"
     inkscape:window-height="449"
     inkscape:window-x="0"
     inkscape:window-y="38"
     inkscape:window-maximized="0"
     inkscape:current-layer="layer1" />
  <defs
     id="defs1">
    <inkscape:path-effect
       effect="bspline"
       id="path-effect70"
       is_visible="true"
       lpeversion="1.3"
       weight="33.333333"
       steps="2"
       helper_size="0"
       apply_no_weight="true"
       apply_with_weight="true"
       only_selected="false"
       uniform="false" />
    <inkscape:path-effect
       effect="bspline"
       id="path-effect63"
       is_visible="true"
       lpeversion="1.3"
       weight="33.333333"
       steps="2"
       helper_size="0"
       apply_no_weight="true"
       apply_with_weight="true"
       only_selected="false"
       uniform="false" />
  </defs>
  <g
     inkscape:label="Layer 1"
     inkscape:groupmode="layer"
     id="layer1"
     transform="translate(-42.597918,-84.137498)">
    <path
       style="fill:#fbe9c2;fill-opacity:1;stroke-width:1"
       d="m 134.65443,64.76041 c 0,0.273103 0,0.819309 -0.15262,1.140608 -0.15262,0.3213 -0.45785,0.417687 -0.71489,0.586371 -0.25704,0.168685 -0.46588,0.409653 -0.5703,0.859476 -0.10442,0.449824 -0.10442,1.10847 0.0482,1.574355 0.15262,0.465885 0.45784,0.738979 0.61046,1.124543 0.15262,0.385565 0.15262,0.883566 0,1.196833 -0.15262,0.313266 -0.45785,0.441784 -0.66669,0.578337 -0.20885,0.136553 -0.3213,0.281134 -0.38556,0.730959 -0.0643,0.449824 -0.0803,1.204856 -0.16065,1.678774 -0.0803,0.473917 -0.22491,0.666693 -0.30523,1.044223 -0.0803,0.377531 -0.0964,0.939788 -0.29721,1.325347 -0.20081,0.385559 -0.58636,0.594399 -0.82734,0.779149 -0.24097,0.184751 -0.33736,0.345394 -0.40162,0.795218 -0.0643,0.449824 -0.0964,1.188794 0.0241,1.678776 0.12049,0.489982 0.39359,0.730952 0.52211,1.092416 0.12851,0.361464 0.11245,0.843401 -0.0562,1.188799 -0.16869,0.345398 -0.48998,0.554237 -0.69079,0.755045 -0.20081,0.200809 -0.28114,0.393592 -0.3213,0.819318 -0.0402,0.425726 -0.0402,1.084375 0.0562,1.485997 0.0964,0.401622 0.28917,0.546205 0.6426,0.72292 0.35343,0.176715 0.8675,0.385555 1.52617,0.570304 0.65867,0.184748 1.4619,0.345394 2.24105,0.473914 0.77916,0.12852 1.53419,0.224907 2.40974,0.289167 0.87554,0.06426 1.87155,0.09639 3.03626,0.104423 1.16472,0.008 2.49808,-0.008 3.85558,-0.09639 1.3575,-0.08836 2.73905,-0.249004 3.80737,-0.425721 1.06833,-0.176716 1.82336,-0.369489 2.39367,-0.546203 0.5703,-0.176714 0.95586,-0.337364 1.19683,-0.498015 0.24097,-0.160652 0.33736,-0.321295 0.39359,-0.706858 0.0562,-0.385563 0.0723,-0.996016 0.23295,-1.397641 0.16065,-0.401626 0.46587,-0.594399 0.66668,-0.747019 0.20082,-0.152619 0.2972,-0.265068 0.35343,-0.666698 0.0562,-0.40163 0.0723,-1.092405 0.0402,-1.510088 -0.0321,-0.417683 -0.11246,-0.562274 -0.24902,-0.682762 -0.13655,-0.120487 -0.32932,-0.216874 -0.42571,-0.498015 -0.0964,-0.281141 -0.0964,-0.747014 0.0562,-1.060281 0.15262,-0.313266 0.45784,-0.473909 0.73095,-0.650627 0.27311,-0.176717 0.51407,-0.369488 0.62653,-0.827346 0.11245,-0.457859 0.0964,-1.180765 0.0883,-1.58239 -0.008,-0.401625 -0.008,-0.481944 0.0562,-0.586367 0.0643,-0.104422 0.19278,-0.23294 0.27311,-0.602437 0.0803,-0.369498 0.11246,-0.979956 0.20885,-1.349448 0.0964,-0.369492 0.25704,-0.49801 0.44982,-0.62653 0.19278,-0.128521 0.41768,-0.257036 0.5462,-0.747023 0.12852,-0.489988 0.16066,-1.341414 0.0643,-1.847459 -0.0964,-0.506045 -0.3213,-0.666694 -0.45785,-0.795213 -0.13655,-0.128518 -0.18474,-0.224908 -0.19278,-0.489981 -0.008,-0.265072 0.0241,-0.698819 0.22492,-0.987988 0.20082,-0.289169 0.57031,-0.433751 0.81128,-0.578337 0.24098,-0.144586 0.35343,-0.289167 0.41769,-0.747023 0.0643,-0.457856 0.0803,-1.228956 -0.0241,-1.702874 -0.10443,-0.473917 -0.32933,-0.650625 -0.86751,-0.867504 -0.53819,-0.216878 -1.38961,-0.473911 -2.26516,-0.674723 -0.87554,-0.200813 -1.77516,-0.345395 -2.61054,-0.441784 -0.83538,-0.09639 -1.60648,-0.144584 -2.4258,-0.184747 -0.81932,-0.04016 -1.6868,-0.07229 -2.69087,-0.06426 -1.00407,0.008 -2.14465,0.05623 -3.10052,0.112454 -0.95587,0.05623 -1.72697,0.120486 -2.52219,0.224909 -0.79522,0.104424 -1.61451,0.249005 -2.26514,0.39359 -0.65064,0.144586 -1.13257,0.289165 -1.50207,0.433751 -0.3695,0.144587 -0.62653,0.289166 -0.81128,0.401621 -0.18474,0.112454 -0.2972,0.192781 -0.39358,0.313263 -0.0964,0.120483 -0.17672,0.281139 -0.21688,0.361463 -0.0402,0.08032 -0.0402,0.08032 -0.0402,0.353426 z"
       id="path70"
       inkscape:path-effect="#path-effect70"
       inkscape:original-d="m 134.65443,64.487307 c 0,0.546206 0,1.092412 0,1.63862 -0.30524,0.09639 -0.61047,0.192778 -0.9157,0.289166 -0.20885,0.24098 -0.41769,0.481947 -0.62653,0.722921 0,0.658675 0,1.317321 0,1.975982 0.30524,0.273109 0.61046,0.546206 0.9157,0.819309 0,0.498023 0,0.996024 0,1.494036 -0.30524,0.128521 -0.61047,0.257038 -0.9157,0.385556 -0.11246,0.144587 -0.22491,0.289169 -0.33736,0.433753 -0.0161,0.755065 -0.0321,1.510099 -0.0482,2.265151 -0.14459,0.19278 -0.28917,0.385556 -0.43375,0.578334 -0.0161,0.562284 -0.0321,1.124543 -0.0482,1.686814 -0.38556,0.208849 -0.77111,0.417687 -1.15667,0.626531 -0.0964,0.160652 -0.19278,0.321299 -0.28917,0.481949 -0.0321,0.738999 -0.0643,1.477967 -0.0964,2.216954 0.27311,0.240977 0.54621,0.481946 0.81931,0.722921 -0.0161,0.481954 -0.0321,0.963893 -0.0482,1.445839 -0.32131,0.208847 -0.6426,0.417688 -0.9639,0.626531 -0.0803,0.192783 -0.16065,0.385556 -0.24097,0.578337 0,0.658672 0,1.317321 0,1.97598 0.19278,0.144587 0.38556,0.289168 0.57834,0.433752 0.51408,0.208849 1.02815,0.417687 1.54223,0.626531 0.80326,0.160652 1.60649,0.321299 2.40973,0.481946 0.75507,0.09639 1.5101,0.192781 2.26515,0.289169 0.99604,0.03213 1.99205,0.06426 2.98807,0.09639 1.33341,-0.01606 2.66677,-0.03213 4.00016,-0.04819 1.38161,-0.160652 2.76316,-0.321299 4.14474,-0.481949 0.75507,-0.19278 1.5101,-0.385556 2.26515,-0.578334 0.38556,-0.160652 0.77112,-0.321299 1.15667,-0.481946 0.0964,-0.160653 0.19278,-0.3213 0.28917,-0.48195 0.0161,-0.610475 0.0321,-1.22093 0.0482,-1.831395 0.30524,-0.192783 0.61046,-0.385559 0.91569,-0.578337 0.0964,-0.112456 0.19278,-0.224909 0.28917,-0.337362 0.0161,-0.690806 0.0321,-1.381583 0.0482,-2.072373 -0.0803,-0.144587 -0.16065,-0.289168 -0.24098,-0.43375 -0.19278,-0.09639 -0.38555,-0.192781 -0.57833,-0.289168 0,-0.465892 0,-0.931765 0,-1.397646 0.30524,-0.160652 0.61046,-0.321299 0.9157,-0.481946 0.24098,-0.192784 0.48194,-0.385559 0.72292,-0.578337 -0.0161,-0.722934 -0.0321,-1.445842 -0.0482,-2.168761 0,-0.08033 0,-0.160649 0,-0.240974 0.12852,-0.128522 0.25704,-0.257038 0.38556,-0.385556 0.0321,-0.610479 0.0643,-1.220933 0.0964,-1.831398 0.16065,-0.128522 0.3213,-0.257038 0.48195,-0.385559 0.22491,-0.128522 0.44981,-0.257038 0.67472,-0.385556 0.0321,-0.851456 0.0643,-1.70288 0.0964,-2.55432 -0.22491,-0.160652 -0.44982,-0.321296 -0.67472,-0.481946 -0.0482,-0.09639 -0.0964,-0.192778 -0.14459,-0.289168 0.0321,-0.433761 0.0643,-0.867503 0.0964,-1.301256 0.3695,-0.144587 0.73899,-0.289168 1.10848,-0.433752 0.11246,-0.144587 0.22491,-0.289169 0.33736,-0.433753 0.0161,-0.771128 0.0321,-1.54223 0.0482,-2.313345 -0.22492,-0.176715 -0.44982,-0.353427 -0.67473,-0.53014 -0.85146,-0.257043 -1.70288,-0.514077 -2.55432,-0.771115 -0.89965,-0.144587 -1.79927,-0.289168 -2.6989,-0.433752 -0.77113,-0.04819 -1.54223,-0.09639 -2.31334,-0.144585 -0.86753,-0.03213 -1.73501,-0.06426 -2.60252,-0.09639 -1.14063,0.04819 -2.28121,0.09639 -3.42182,0.144584 -0.77113,0.06426 -1.54223,0.128519 -2.31334,0.192778 -0.81933,0.144587 -1.63862,0.289168 -2.45793,0.433753 -0.48196,0.144586 -0.96389,0.289165 -1.44584,0.43375 -0.25705,0.144586 -0.51408,0.289168 -0.77112,0.433752 -0.11245,0.08033 -0.22491,0.16065 -0.33736,0.240975 -0.0803,0.160652 -0.16065,0.321296 -0.24097,0.481946 z"
       transform="translate(-63.384923,22.205823)" />
    <path
       style="fill:#fbe9c2;fill-opacity:1;stroke-width:1"
       d="m 108.16215,75.06144 c -0.0202,0.354086 0,0.900395 -0.13153,1.173546 -0.13152,0.273151 -0.41478,0.273151 -0.67782,0.424906 -0.26304,0.151755 -0.50583,0.455247 -0.62724,0.900392 -0.1214,0.445146 -0.1214,1.031905 0.0405,1.46693 0.16188,0.435026 0.4856,0.718284 0.62724,1.122961 0.14163,0.404677 0.10117,0.930735 -0.0809,1.284824 -0.1821,0.354088 -0.50583,0.536185 -0.69805,0.789109 -0.19222,0.252924 -0.25292,0.576652 -0.29339,0.97121 -0.0405,0.394558 -0.0607,0.859922 0.10117,1.24436 0.16187,0.384437 0.50584,0.687937 1.25449,0.971208 0.74865,0.283272 1.90194,0.546303 3.35877,0.738522 1.45683,0.19222 3.21711,0.313618 4.81557,0.374319 1.59846,0.0607 3.03502,0.0607 4.4615,-0.03035 1.42647,-0.09105 2.84279,-0.273151 3.94552,-0.465373 1.10274,-0.192221 1.89183,-0.394551 2.44825,-0.607006 0.55643,-0.212455 0.88016,-0.43502 1.04202,-0.880162 0.16187,-0.445142 0.16187,-1.112834 0.31362,-1.547857 0.15176,-0.435023 0.45526,-0.637356 0.64747,-0.778983 0.19221,-0.141627 0.27316,-0.222576 0.32374,-0.647486 0.0506,-0.42491 0.0708,-1.19377 0.0405,-1.659135 -0.0303,-0.465365 -0.11129,-0.627245 -0.25292,-0.748647 -0.14164,-0.121403 -0.34397,-0.202334 -0.43502,-0.455256 -0.091,-0.252921 -0.0708,-0.677822 0.12141,-0.971208 0.19222,-0.293387 0.55641,-0.455251 0.81945,-0.65759 0.26303,-0.202339 0.4249,-0.445133 0.50583,-0.940862 0.0809,-0.495728 0.0809,-1.244354 -0.0708,-1.72996 -0.15175,-0.485607 -0.45524,-0.708167 -1.2039,-0.950974 -0.74865,-0.242807 -1.9424,-0.505837 -3.1969,-0.698057 -1.25449,-0.19222 -2.56964,-0.313619 -3.84436,-0.384436 -1.27472,-0.07082 -2.50894,-0.09105 -3.88483,-0.04047 -1.3759,0.05059 -2.89338,0.171984 -4.17822,0.343971 -1.28484,0.171987 -2.33696,0.39455 -3.10584,0.596888 -0.76888,0.202337 -1.25447,0.384434 -1.54786,0.566539 -0.29339,0.182105 -0.39455,0.3642 -0.47549,0.536187 -0.0809,0.171988 -0.14163,0.333852 -0.16186,0.687938 z"
       id="path57"
       inkscape:path-effect="#path-effect63"
       inkscape:original-d="m 108.12168,74.869224 c 0.0202,0.546303 0.0405,1.09261 0.0607,1.638913 -0.28328,0 -0.56654,0 -0.84981,0 -0.24281,0.303509 -0.4856,0.607005 -0.72841,0.910508 0,0.586785 0,1.173544 0,1.760316 0.32375,0.283276 0.64747,0.566539 0.97121,0.849807 -0.0405,0.526082 -0.0809,1.052145 -0.1214,1.578216 -0.32374,0.182104 -0.64747,0.364201 -0.97121,0.546303 -0.0607,0.323745 -0.1214,0.647473 -0.1821,0.971209 -0.0202,0.465381 -0.0405,0.930743 -0.0607,1.396114 0.34397,0.303509 0.68794,0.607004 1.03191,0.910508 1.15333,0.26304 2.30662,0.526071 3.45993,0.789106 1.76035,0.121404 3.52063,0.242803 5.28095,0.364204 1.4366,0 2.87316,0 4.30974,0 1.41637,-0.182107 2.83269,-0.364204 4.24903,-0.546306 0.78913,-0.20234 1.57822,-0.40467 2.36732,-0.607004 0.32375,-0.222573 0.64748,-0.445138 0.97121,-0.667708 0,-0.667718 0,-1.33541 0,-2.003116 0.30351,-0.20234 0.60701,-0.404672 0.91051,-0.607007 0.0809,-0.08094 0.16187,-0.161866 0.2428,-0.242802 0.0202,-0.768888 0.0405,-1.537746 0.0607,-2.306619 -0.0809,-0.161872 -0.16187,-0.323737 -0.2428,-0.485606 -0.20234,-0.08094 -0.40467,-0.161867 -0.607,-0.2428 0.0202,-0.424913 0.0405,-0.84981 0.0607,-1.274712 0.36421,-0.161873 0.7284,-0.323737 1.0926,-0.485606 0.16188,-0.242806 0.32374,-0.485603 0.48561,-0.728406 0,-0.748654 0,-1.49728 0,-2.245918 -0.30351,-0.222576 -0.607,-0.445138 -0.91051,-0.667708 -1.1938,-0.263041 -2.38755,-0.526071 -3.58133,-0.789107 -1.31521,-0.121404 -2.63036,-0.242802 -3.94553,-0.364204 -1.23427,-0.02024 -2.46849,-0.04046 -3.70274,-0.0607 -1.51754,0.121404 -3.03502,0.242802 -4.55254,0.364204 -1.05216,0.222573 -2.10428,0.445137 -3.15643,0.667705 -0.48561,0.182107 -0.9712,0.364204 -1.45681,0.546306 -0.10117,0.182105 -0.20233,0.364202 -0.3035,0.546304 -0.0607,0.161872 -0.1214,0.323736 -0.1821,0.485606 z"
       transform="translate(-63.384923,22.205823)" />
    <path
       id="STROKE_b1fd1eeb-e9b2-4921-b547-2379cb0bb30a"
       opacity="1"
       fill="none"
       stroke="#000000"
       stroke-width="0.452497"
       stroke-opacity="1"
       stroke-linecap="round"
       stroke-linejoin="round"
       d="m 67.817807,104.52842 q -0.0315,0.01 -0.30381,0.20001 -0.2723,0.19 -0.37683,0.26955 -0.10453,0.0795 -0.16568,0.19243 -0.0613,0.11303 -0.0789,0.17212 -0.0173,0.0592 -0.0138,0.0718 0.004,0.0125 -0.003,-0.003 -0.007,-0.0152 5.5e-4,0.0491 0.007,0.0644 0.006,0.0823 -0.002,0.018 -8.9e-4,0.0149 5.6e-4,-0.003 0.006,-0.016 0.005,-0.013 0.002,0.0502 -0.003,0.0634 0.16401,0.26239 0.16708,0.19916 0.33444,0.29273 0.16723,0.0937 0.34285,0.18142 0.17574,0.0878 0.26712,0.1239 0.0915,0.0361 0.14022,0.0554 0.0487,0.0193 0.0992,0.0379 0.0505,0.0186 0.11754,0.0396 0.0669,0.021 0.17268,0.0597 0.10564,0.0386 0.58884,0.17855 0.48305,0.14007 1.19027,0.26941 0.70722,0.12934 1.10142,0.18685 0.39419,0.0574 0.79901,0.10573 0.40484,0.0484 0.72179,0.0823 0.31708,0.0337 0.9696,0.0828 0.65264,0.0491 1.24917,0.0877 0.59654,0.0387 1.67067,0.0554 1.07413,0.0167 1.68172,0.006 0.60759,-0.0109 0.89236,-0.0203 0.28462,-0.01 0.38159,-0.0132 0.0968,-0.004 0.29666,-0.012 0.19996,-0.009 0.33738,-0.0162 0.13741,-0.008 0.21243,-0.0114 0.0751,-0.004 0.34087,-0.0202 0.26587,-0.0162 0.54897,-0.0378 0.28308,-0.0215 0.48472,-0.0393 0.20165,-0.0179 0.40147,-0.0365 0.19982,-0.0185 0.62424,-0.0697 0.42441,-0.0511 0.90173,-0.11059 0.47717,-0.0597 1.15193,-0.18442 0.67476,-0.12476 1.06895,-0.23579 0.3942,-0.11088 0.6402,-0.18657 0.24587,-0.0755 0.5568,-0.1704 0.31093,-0.0949 0.60325,-0.29229 0.29217,-0.1973 0.37907,-0.27628" />
    <path
       id="STROKE_496933c1-6076-4837-8480-22335774b8d7"
       opacity="1"
       fill="none"
       stroke="#000000"
       stroke-width="0.452497"
       stroke-opacity="1"
       stroke-linecap="round"
       stroke-linejoin="round"
       d="m 66.857017,107.50133 q -0.002,0.0388 0.16526,0.23793 0.16708,0.19901 0.33431,0.29273 0.16722,0.0936 0.34297,0.18141 0.17562,0.0877 0.26714,0.12376 0.0914,0.0362 0.14007,0.0554 0.0487,0.0193 0.0992,0.0379 0.0505,0.0186 0.11754,0.0396 0.0671,0.021 0.17268,0.0597 0.10579,0.0387 0.58884,0.1787 0.48305,0.13992 1.19027,0.26926 0.70722,0.12948 1.10156,0.18685 0.3942,0.0575 0.79888,0.10588 0.40483,0.0482 0.72191,0.0821 0.31696,0.0339 0.96961,0.0828 0.6525,0.0491 1.24904,0.0877 0.59654,0.0388 1.67067,0.0555 1.07427,0.0168 1.68172,0.006 0.60759,-0.011 0.89235,-0.0204 0.28463,-0.01 0.3816,-0.013 0.097,-0.004 0.2968,-0.0122 0.19982,-0.009 0.33724,-0.0162 0.13742,-0.007 0.21256,-0.0114 0.075,-0.004 0.34087,-0.02 0.26574,-0.0162 0.54882,-0.0378 0.28309,-0.0216 0.48474,-0.0395 0.20164,-0.0179 0.40146,-0.0363 0.19983,-0.0186 0.62424,-0.0697 0.42443,-0.0512 0.90173,-0.11074 0.47718,-0.0595 1.15208,-0.18427 0.67476,-0.12477 1.06895,-0.23579 0.3942,-0.11103 0.64006,-0.18657 0.246,-0.0757 0.55693,-0.17054 0.31093,-0.0949 0.60311,-0.29216 0.29232,-0.19744 0.39895,-0.29444 0.10677,-0.0971 0.15491,-0.18614 0.0481,-0.089 0.0641,-0.16024" />
    <path
       id="STROKE_f0559d03-a417-4ea1-be8c-30162006e5e0"
       opacity="1"
       fill="none"
       stroke="#000000"
       stroke-width="0.452497"
       stroke-opacity="1"
       stroke-linecap="round"
       stroke-linejoin="round"
       d="m 88.503177,107.50405 0.0718,-1.54605" />
    <path
       id="STROKE_58e84154-5602-4aa9-941e-52196d9f01a3"
       opacity="1"
       fill="none"
       stroke="#000000"
       stroke-width="0.452497"
       stroke-opacity="1"
       stroke-linecap="round"
       stroke-linejoin="round"
       d="m 66.840927,107.46041 0.0181,-1.82275" />
    <path
       id="STROKE_9ac05afb-17e5-4897-964d-1cdedb52d0a8"
       opacity="1"
       fill="none"
       stroke="#000000"
       stroke-width="0.452497"
       stroke-opacity="1"
       stroke-linecap="round"
       stroke-linejoin="round"
       d="m 68.321987,103.14089 q 0.14945,0.17799 0.31666,0.2717 0.16723,0.0936 0.34298,0.18141 0.17562,0.0877 0.26714,0.12376 0.0914,0.0362 0.14006,0.0554 0.0487,0.0193 0.0992,0.0379 0.0505,0.0186 0.11754,0.0396 0.067,0.021 0.17268,0.0597 0.10578,0.0386 0.58884,0.1787 0.48304,0.13993 1.19027,0.26926 0.70722,0.12949 1.10155,0.18686 0.39419,0.0575 0.79888,0.10587 0.40482,0.0482 0.72192,0.0821 0.31694,0.0339 0.96959,0.0828 0.65252,0.0491 1.24905,0.0877 0.59654,0.0388 1.6708,0.0555 1.07413,0.0168 1.68158,0.006 0.6076,-0.011 0.89236,-0.0205 0.28463,-0.009 0.3816,-0.013 0.097,-0.004 0.2968,-0.0122 0.19982,-0.009 0.33724,-0.0162 0.13741,-0.007 0.21256,-0.0114 0.075,-0.004 0.34088,-0.02 0.26587,-0.0162 0.54881,-0.0378 0.28309,-0.0216 0.48473,-0.0395 0.20165,-0.0179 0.40148,-0.0363 0.19981,-0.0186 0.62424,-0.0697 0.42455,-0.0512 0.90172,-0.11074 0.47717,-0.0595 1.15208,-0.18427 0.67475,-0.12476 1.06895,-0.23579 0.39419,-0.11102 0.64005,-0.18657 0.246,-0.0757 0.55694,-0.17054 0.31094,-0.0949 0.60312,-0.29215 0.29231,-0.19744 0.39894,-0.29445 0.10676,-0.0972 0.15491,-0.18614 0.0481,-0.089 0.06,-0.14178 0.0117,-0.0526 0.0111,-0.0858 -8.3e-4,-0.0332 7.1e-4,-0.0753 0.002,-0.0419 -0.006,-0.0512 -0.007,-0.009 -0.009,-0.003 -0.002,0.007 -0.0107,-0.078 -0.008,-0.0845 -0.17015,-0.25324 -0.16163,-0.16868 -0.35265,-0.28243" />
    <path
       id="STROKE_031e6892-1f15-4975-9f72-0583720d9084"
       opacity="1"
       fill="none"
       stroke="#000000"
       stroke-width="0.452497"
       stroke-opacity="1"
       stroke-linecap="round"
       stroke-linejoin="round"
       d="m 68.109147,104.74674 q -0.002,0.0386 0.16526,0.23779 0.16708,0.19916 0.3343,0.29273 0.16736,0.0936 0.34298,0.18142 0.17561,0.0877 0.26713,0.1239 0.0914,0.0361 0.14007,0.0554 0.0487,0.0192 0.0993,0.0378 0.0505,0.0187 0.11741,0.0398 0.067,0.021 0.17281,0.0595 0.10566,0.0386 0.58871,0.1787 0.48319,0.13992 1.19041,0.2694 0.70722,0.12934 1.10141,0.18686 0.3942,0.0574 0.79903,0.10573 0.40468,0.0484 0.72177,0.0821 0.3171,0.0339 0.9696,0.083 0.65252,0.0489 1.24918,0.0877 0.59653,0.0386 1.67068,0.0554 1.07412,0.0168 1.68172,0.006 0.60758,-0.0109 0.89221,-0.0204 0.28475,-0.01 0.3816,-0.013 0.097,-0.004 0.2968,-0.0122 0.19982,-0.009 0.33738,-0.016 0.13741,-0.008 0.21241,-0.0116 0.075,-0.004 0.34088,-0.02 0.26588,-0.0162 0.54896,-0.0378 0.28308,-0.0216 0.48473,-0.0395 0.2015,-0.0178 0.40132,-0.0363 0.19983,-0.0185 0.62438,-0.0697 0.42443,-0.0512 0.90161,-0.11074 0.4773,-0.0595 1.15205,-0.18428 0.67477,-0.12476 1.06895,-0.23578 0.39421,-0.11103 0.64021,-0.18657 0.24586,-0.0755 0.55679,-0.1704 0.31093,-0.095 0.60326,-0.2923 0.29218,-0.1973 0.39881,-0.29444 0.10677,-0.097 0.1549,-0.186 0.0483,-0.0891 0.0643,-0.16024" />
    <path
       id="STROKE_161a0f71-f5de-48d9-907e-c670693d7d6f"
       opacity="1"
       fill="none"
       stroke="#000000"
       stroke-width="0.452497"
       stroke-opacity="1"
       stroke-linecap="round"
       stroke-linejoin="round"
       d="m 89.703807,104.86192 0.084,-1.80658" />
    <path
       id="STROKE_f0d18962-7935-4e16-b948-129ad302ed6a"
       opacity="1"
       fill="none"
       stroke="#000000"
       stroke-width="0.452497"
       stroke-opacity="1"
       stroke-linecap="round"
       stroke-linejoin="round"
       d="m 68.127477,104.78079 0.0172,-1.7349" />
    <path
       id="STROKE_5c1577a5-9f6a-4e91-8698-63d975852fbb"
       opacity="1"
       fill="none"
       stroke="#000000"
       stroke-width="0.452497"
       stroke-opacity="1"
       stroke-linecap="round"
       stroke-linejoin="round"
       d="m 68.734647,99.101371 q -0.47885,0.151515 -0.75116,0.341517 -0.27231,0.19 -0.37671,0.269547 -0.10453,0.07955 -0.16581,0.192434 -0.0613,0.113031 -0.0787,0.172121 -0.0175,0.0592 -0.0138,0.0717 0.004,0.0126 -0.003,-0.003 -0.007,-0.0153 5.5e-4,0.0491 0.007,0.0642 0.006,0.0823 -0.002,0.018 -8.8e-4,0.0149 4.4e-4,-0.003 0.006,-0.016 0.005,-0.013 0.002,0.0502 -0.004,0.0632 0.16401,0.26239 0.16707,0.19916 0.3343,0.29273 0.16722,0.0936 0.34298,0.18142 0.17561,0.0877 0.26713,0.1239 0.0914,0.036 0.14007,0.0554 0.0487,0.0193 0.0992,0.0379 0.0505,0.0186 0.11754,0.0396 0.067,0.021 0.17268,0.0597 0.10579,0.0385 0.58884,0.17855 0.48319,0.14007 1.19041,0.26941 0.70723,0.12934 1.10142,0.18685 0.39419,0.0574 0.79901,0.10573 0.4047,0.0484 0.72179,0.0823 0.31708,0.0338 0.9696,0.0828 0.6525,0.0489 1.24903,0.0877 0.59668,0.0386 1.67081,0.0554 1.07414,0.0167 1.68172,0.006 0.60745,-0.0109 0.89223,-0.0204 0.28475,-0.009 0.38158,-0.013 0.097,-0.004 0.29681,-0.0122 0.19982,-0.008 0.33723,-0.016 0.13755,-0.008 0.21257,-0.0116 0.075,-0.004 0.34088,-0.02 0.26586,-0.0162 0.54896,-0.0378 0.28308,-0.0216 0.48458,-0.0393 0.20165,-0.0179 0.40147,-0.0365 0.19982,-0.0185 0.62424,-0.0697 0.42455,-0.0512 0.90173,-0.11073 0.47732,-0.0595 1.15207,-0.18428 0.67476,-0.12476 1.06895,-0.23579 0.3942,-0.11102 0.64007,-0.18656 0.246,-0.0755 0.55693,-0.1704 0.31093,-0.095 0.60311,-0.2923 0.29233,-0.1973 0.45856,-0.34867" />
    <path
       id="STROKE_023c6483-7fbd-44a1-8db3-3f205670b3da"
       opacity="1"
       fill="none"
       stroke="#000000"
       stroke-width="0.452497"
       stroke-opacity="1"
       stroke-linecap="round"
       stroke-linejoin="round"
       d="m 67.326637,102.21578 q -0.002,0.0388 0.16512,0.23779 0.16708,0.19916 0.33431,0.29273 0.16736,0.0937 0.34298,0.18141 0.17561,0.0878 0.26713,0.12391 0.0915,0.0361 0.14021,0.0554 0.0487,0.0193 0.0992,0.0379 0.0505,0.0186 0.11754,0.0396 0.067,0.021 0.17268,0.0597 0.10565,0.0386 0.58884,0.17855 0.48305,0.14007 1.19027,0.26941 0.70723,0.12934 1.10141,0.18685 0.3942,0.0574 0.79902,0.10573 0.40483,0.0484 0.72178,0.0823 0.31709,0.0339 0.96961,0.0828 0.65265,0.0491 1.24917,0.0877 0.59654,0.0386 1.67068,0.0554 1.07412,0.0169 1.68172,0.006 0.60758,-0.0109 0.89222,-0.0203 0.28475,-0.01 0.38172,-0.0132 0.0968,-0.004 0.29666,-0.012 0.19982,-0.009 0.33739,-0.0162 0.13741,-0.008 0.21241,-0.0114 0.075,-0.004 0.34089,-0.0202 0.26587,-0.016 0.54896,-0.0376 0.28308,-0.0216 0.48472,-0.0395 0.20165,-0.0179 0.40147,-0.0363 0.19968,-0.0186 0.62424,-0.0698 0.42441,-0.0511 0.90159,-0.11059 0.47731,-0.0595 1.15207,-0.18428 0.67477,-0.12476 1.06895,-0.23579 0.3942,-0.11102 0.64021,-0.18656 0.24586,-0.0757 0.55679,-0.17055 0.31093,-0.0949 0.60326,-0.29229 0.29216,-0.1973 0.39894,-0.29431 0.10663,-0.0971 0.15476,-0.18613 0.0483,-0.089 0.0643,-0.16024" />
    <path
       id="STROKE_f5972382-7a85-448b-bfa2-ef54246b7651"
       opacity="1"
       fill="none"
       stroke="#000000"
       stroke-width="0.452497"
       stroke-opacity="1"
       stroke-linecap="round"
       stroke-linejoin="round"
       d="m 88.972787,102.18102 0.0736,-1.58597" />
    <path
       id="STROKE_5ba119ec-2e64-4cc1-acb6-67cec7d1af01"
       opacity="1"
       fill="none"
       stroke="#000000"
       stroke-width="0.452497"
       stroke-opacity="1"
       stroke-linecap="round"
       stroke-linejoin="round"
       d="m 67.327617,102.17486 0.0182,-1.82289" />
    <path
       id="STROKE_8f1b21aa-1540-496e-8185-f6e39e6b4f0b"
       opacity="1"
       fill="none"
       stroke="#000000"
       stroke-width="0.452497"
       stroke-opacity="1"
       stroke-linecap="round"
       stroke-linejoin="round"
       d="m 69.140737,96.985178 q -0.0845,0.06439 -0.14581,0.177412 -0.0612,0.112885 -0.0787,0.172116 -0.0174,0.05909 -0.0137,0.07168 0.004,0.01259 -0.003,-0.0027 -0.007,-0.01516 5.6e-4,0.04921 0.007,0.06424 0.006,0.08227 -0.002,0.01788 -8.9e-4,0.01474 5.6e-4,-0.0031 0.006,-0.01603 0.005,-0.01287 0.002,0.05036 -0.003,0.06324 0.164,0.262395 0.16709,0.199014 0.33431,0.292727 0.16736,0.09357 0.34298,0.181417 0.17561,0.0877 0.26713,0.123758 0.0914,0.03619 0.14021,0.05537 0.0487,0.01931 0.0992,0.03791 0.0505,0.01859 0.1174,0.03963 0.067,0.02103 0.17282,0.05966 0.10564,0.03863 0.58869,0.178698 0.48319,0.139925 1.19042,0.269262 0.70722,0.129482 1.10142,0.186854 0.39418,0.05751 0.79901,0.105874 0.40469,0.04822 0.72179,0.08212 0.31707,0.0339 0.96959,0.08284 0.65265,0.04907 1.24918,0.0877 0.59654,0.03863 1.67067,0.05551 1.07412,0.01674 1.68172,0.0059 0.60758,-0.01101 0.89222,-0.02045 0.28476,-0.0094 0.38173,-0.01301 0.0968,-0.0036 0.29665,-0.01217 0.19983,-0.0086 0.33739,-0.01616 0.13741,-0.0074 0.21242,-0.01144 0.075,-0.0039 0.34088,-0.02004 0.26587,-0.01616 0.54896,-0.03777 0.28308,-0.0216 0.48472,-0.03949 0.20165,-0.01789 0.40133,-0.03635 0.19982,-0.01859 0.62438,-0.06967 0.42442,-0.05122 0.90159,-0.110739 0.47731,-0.05953 1.15208,-0.184278 0.67476,-0.12476 1.06895,-0.235784 0.39419,-0.111025 0.64019,-0.186567 0.24587,-0.07569 0.5568,-0.170543 0.31093,-0.09486 0.60326,-0.292156 0.29217,-0.197441 0.39895,-0.294443 0.10662,-0.09715 0.15476,-0.186138 0.0483,-0.089 0.06,-0.141787 0.0119,-0.05266 0.0111,-0.08585 -8.4e-4,-0.03319 7.1e-4,-0.07526 0.002,-0.04192 -0.006,-0.05122 -0.007,-0.0093 -0.009,-0.0029 -0.002,0.0065 -0.0105,-0.07584" />
    <path
       id="STROKE_8490a9e5-70db-4294-b9de-58ecb482799f"
       opacity="1"
       fill="none"
       stroke="#000000"
       stroke-width="0.452497"
       stroke-opacity="1"
       stroke-linecap="round"
       stroke-linejoin="round"
       d="m 68.880597,99.473504 q -0.002,0.03863 0.16526,0.237787 0.16694,0.199158 0.3343,0.292729 0.16722,0.0936 0.34284,0.18141 0.17576,0.0877 0.26713,0.12391 0.0915,0.036 0.14022,0.0554 0.0487,0.0192 0.0992,0.0378 0.0505,0.0186 0.11754,0.0398 0.067,0.0209 0.17267,0.0595 0.10565,0.0386 0.58884,0.17869 0.48305,0.13993 1.19028,0.26941 0.70722,0.12934 1.10141,0.18671 0.39432,0.0575 0.79902,0.10588 0.40482,0.0484 0.72178,0.0821 0.31708,0.0339 0.96973,0.083 0.65252,0.0489 1.24905,0.0876 0.59654,0.0388 1.67067,0.0555 1.07412,0.0167 1.68171,0.006 0.60759,-0.0109 0.89236,-0.0205 0.28463,-0.009 0.3816,-0.013 0.0968,-0.004 0.29679,-0.0122 0.19983,-0.009 0.33725,-0.016 0.13741,-0.008 0.21241,-0.0116 0.0751,-0.004 0.34088,-0.02 0.26587,-0.0162 0.54896,-0.0378 0.28309,-0.0216 0.48473,-0.0395 0.20165,-0.0178 0.40147,-0.0363 0.19982,-0.0185 0.62424,-0.0697 0.42442,-0.0512 0.90173,-0.11074 0.47717,-0.0595 1.15194,-0.18428 0.67476,-0.12476 1.06895,-0.23578 0.39432,-0.11103 0.64018,-0.18657 0.24588,-0.0755 0.55681,-0.17054 0.31093,-0.0949 0.60325,-0.29216 0.29217,-0.197297 0.39895,-0.294444 0.10662,-0.097 0.15491,-0.185995 0.0481,-0.08914 0.0641,-0.160241" />
    <path
       id="STROKE_a8e6c5c5-9d98-4f66-986d-7593c7659d60"
       opacity="1"
       fill="none"
       stroke="#000000"
       stroke-width="0.452497"
       stroke-opacity="1"
       stroke-linecap="round"
       stroke-linejoin="round"
       d="m 90.526747,99.496681 0.0838,-1.806581" />
    <path
       id="STROKE_6a8f8442-30c3-4d07-8937-808ebf6f40ef"
       opacity="1"
       fill="none"
       stroke="#000000"
       stroke-width="0.452497"
       stroke-opacity="1"
       stroke-linecap="round"
       stroke-linejoin="round"
       d="m 68.807967,99.535455 0.0181,-1.822892" />
    <path
       id="STROKE_f696cc34-d941-444a-b225-aa0ced1bcff0"
       opacity="1"
       fill="none"
       stroke="#000000"
       stroke-width="0.452497"
       stroke-opacity="1"
       stroke-linecap="round"
       stroke-linejoin="round"
       d="m 43.801037,103.79846 q -0.0316,0.01 -0.30394,0.20001 -0.27231,0.19 -0.37684,0.26955 -0.10439,0.0795 -0.16568,0.19258 -0.0613,0.11288 -0.0787,0.17211 -0.0175,0.0591 -0.0138,0.0717 0.004,0.0124 -0.003,-0.003 -0.007,-0.0152 5.5e-4,0.0491 0.007,0.0644 0.006,0.0823 -0.002,0.018 -8.8e-4,0.0149 4.3e-4,-0.003 0.006,-0.016 0.006,-0.013 0.002,0.0504 -0.004,0.0632 0.164,0.2624 0.16708,0.19901 0.3343,0.29273 0.16722,0.0936 0.34297,0.18127 0.17562,0.0879 0.26714,0.1239 0.0914,0.0362 0.14007,0.0554 0.0487,0.0193 0.0992,0.0379 0.0505,0.0186 0.11754,0.0396 0.0671,0.021 0.17268,0.0597 0.10579,0.0386 0.58884,0.17856 0.48305,0.14007 1.19041,0.2694 0.70722,0.12934 1.10142,0.18686 0.39419,0.0574 0.79902,0.10573 0.40468,0.0484 0.72177,0.0823 0.3171,0.0339 0.9696,0.0828 0.65251,0.0491 1.24905,0.0877 0.59667,0.0387 1.6708,0.0555 1.07413,0.0168 1.68172,0.006 0.60746,-0.0109 0.89221,-0.0203 0.28477,-0.009 0.3816,-0.0132 0.097,-0.004 0.2968,-0.012 0.19983,-0.009 0.33724,-0.0162 0.13756,-0.007 0.21256,-0.0114 0.075,-0.004 0.34087,-0.0202 0.26588,-0.016 0.54896,-0.0376 0.28309,-0.0216 0.4846,-0.0395 0.20164,-0.0179 0.40146,-0.0363 0.19983,-0.0186 0.62425,-0.0698 0.42456,-0.0511 0.90172,-0.1106 0.47732,-0.0595 1.15208,-0.18428 0.67476,-0.12476 1.06895,-0.23578 0.3942,-0.11103 0.64006,-0.18657 0.246,-0.0757 0.55693,-0.17054 0.31093,-0.0949 0.60311,-0.2923 0.29233,-0.1973 0.37922,-0.27628" />
    <path
       id="STROKE_d846552c-8919-419e-b469-8f5a36147429"
       opacity="1"
       fill="none"
       stroke="#000000"
       stroke-width="0.452497"
       stroke-opacity="1"
       stroke-linecap="round"
       stroke-linejoin="round"
       d="m 42.840257,106.77137 q -0.002,0.0388 0.16512,0.23793 0.16708,0.19916 0.33429,0.29273 0.16737,0.0936 0.34298,0.18141 0.17562,0.0877 0.26714,0.12391 0.0915,0.0361 0.14021,0.0554 0.0487,0.0192 0.0992,0.0378 0.0505,0.0186 0.11741,0.0396 0.0671,0.021 0.17281,0.0597 0.10566,0.0387 0.58871,0.1787 0.48319,0.13992 1.19041,0.2694 0.70722,0.12934 1.10142,0.18672 0.39419,0.0575 0.79902,0.10587 0.40482,0.0484 0.72177,0.0821 0.3171,0.0339 0.96959,0.083 0.65265,0.0489 1.24919,0.0876 0.59654,0.0388 1.67067,0.0555 1.07413,0.0168 1.68172,0.006 0.60759,-0.0109 0.89221,-0.0204 0.28476,-0.01 0.38174,-0.013 0.0968,-0.004 0.29667,-0.0122 0.19982,-0.009 0.33737,-0.016 0.13742,-0.008 0.21242,-0.0116 0.075,-0.004 0.34087,-0.02 0.26588,-0.0162 0.54896,-0.0378 0.28309,-0.0216 0.48474,-0.0395 0.20164,-0.0177 0.40133,-0.0363 0.19983,-0.0186 0.62438,-0.0697 0.42442,-0.0512 0.90159,-0.11074 0.47731,-0.0595 1.15207,-0.18428 0.67475,-0.12476 1.06895,-0.23578 0.3942,-0.11103 0.6402,-0.18657 0.24586,-0.0755 0.55679,-0.17054 0.31093,-0.0949 0.60325,-0.29216 0.29219,-0.19744 0.39895,-0.29444 0.10664,-0.097 0.15477,-0.18614 0.0483,-0.089 0.0643,-0.1601" />
    <path
       id="STROKE_c810cd63-3bc8-4c16-aca6-a23acd76c028"
       opacity="1"
       fill="none"
       stroke="#000000"
       stroke-width="0.452497"
       stroke-opacity="1"
       stroke-linecap="round"
       stroke-linejoin="round"
       d="m 64.486417,106.77409 0.0718,-1.54605" />
    <path
       id="STROKE_d249b36c-f2fa-45a3-b494-15c689cda115"
       opacity="1"
       fill="none"
       stroke="#000000"
       stroke-width="0.452497"
       stroke-opacity="1"
       stroke-linecap="round"
       stroke-linejoin="round"
       d="m 42.824167,106.7306 0.0181,-1.8229" />
    <path
       id="STROKE_a3bb3cc5-e411-40d7-aada-133e5e847f25"
       opacity="1"
       fill="none"
       stroke="#000000"
       stroke-width="0.452497"
       stroke-opacity="1"
       stroke-linecap="round"
       stroke-linejoin="round"
       d="m 44.305077,102.41093 q 0.14945,0.17813 0.31667,0.2717 0.16736,0.0936 0.34297,0.18142 0.17563,0.0877 0.26714,0.1239 0.0915,0.0361 0.14021,0.0554 0.0487,0.0192 0.0992,0.0378 0.0505,0.0186 0.11755,0.0396 0.067,0.021 0.17268,0.0597 0.10565,0.0386 0.5887,0.1787 0.48319,0.13992 1.19041,0.2694 0.70722,0.12934 1.10142,0.18671 0.39419,0.0575 0.79901,0.10588 0.40483,0.0484 0.72178,0.0821 0.31709,0.0339 0.9696,0.083 0.65265,0.0489 1.24918,0.0876 0.59654,0.0388 1.67067,0.0555 1.07412,0.0167 1.68172,0.006 0.60759,-0.0109 0.89221,-0.0204 0.28477,-0.01 0.38174,-0.013 0.0968,-0.004 0.29665,-0.0122 0.19983,-0.009 0.33739,-0.016 0.13741,-0.008 0.21243,-0.0116 0.075,-0.004 0.34086,-0.02 0.26587,-0.0162 0.54897,-0.0378 0.28308,-0.0216 0.48472,-0.0395 0.20164,-0.0177 0.40147,-0.0363 0.19969,-0.0186 0.62425,-0.0697 0.42441,-0.0512 0.90158,-0.11074 0.47732,-0.0595 1.15208,-0.18428 0.67476,-0.12476 1.06895,-0.23579 0.3942,-0.11102 0.6402,-0.18656 0.24586,-0.0755 0.5568,-0.17054 0.31092,-0.0949 0.60324,-0.29216 0.29219,-0.19744 0.39895,-0.29444 0.10663,-0.097 0.15476,-0.18614 0.0483,-0.089 0.06,-0.14164 0.0119,-0.0528 0.011,-0.086 -7.1e-4,-0.0332 7.2e-4,-0.0751 0.002,-0.0421 -0.006,-0.0514 -0.007,-0.009 -0.009,-0.003 -0.002,0.007 -0.0107,-0.078 -0.008,-0.0844 -0.17016,-0.25324 -0.16177,-0.16869 -0.35278,-0.28243" />
    <path
       id="STROKE_a50e5616-4a3d-4643-ab99-52a07df402b6"
       opacity="1"
       fill="none"
       stroke="#000000"
       stroke-width="0.452497"
       stroke-opacity="1"
       stroke-linecap="round"
       stroke-linejoin="round"
       d="m 44.092377,104.01679 q -0.002,0.0388 0.16527,0.23778 0.16707,0.19916 0.33429,0.29273 0.16722,0.0937 0.34284,0.18142 0.17575,0.0879 0.26714,0.1239 0.0915,0.0361 0.14021,0.0554 0.0487,0.0193 0.0992,0.0379 0.0505,0.0186 0.11755,0.0396 0.067,0.0211 0.17267,0.0597 0.10565,0.0387 0.58884,0.17855 0.48305,0.14007 1.19027,0.26941 0.70723,0.12934 1.10142,0.18685 0.39432,0.0574 0.79902,0.10574 0.40482,0.0484 0.72192,0.0823 0.31694,0.0338 0.96959,0.0828 0.65252,0.0489 1.24905,0.0877 0.59653,0.0386 1.67067,0.0554 1.07412,0.0168 1.68171,0.006 0.60759,-0.0109 0.89236,-0.0203 0.28462,-0.01 0.38159,-0.0131 0.097,-0.004 0.29681,-0.0122 0.19983,-0.008 0.33724,-0.016 0.13741,-0.008 0.21255,-0.0114 0.075,-0.004 0.34088,-0.0202 0.26574,-0.0162 0.54882,-0.0378 0.28309,-0.0215 0.48473,-0.0393 0.20165,-0.0179 0.40148,-0.0365 0.19981,-0.0185 0.62423,-0.0697 0.42442,-0.0511 0.90173,-0.11074 0.47717,-0.0595 1.15193,-0.18428 0.67477,-0.12476 1.06909,-0.23579 0.39419,-0.11088 0.64006,-0.18656 0.24586,-0.0755 0.55693,-0.17041 0.31093,-0.095 0.60312,-0.29229 0.29232,-0.1973 0.39895,-0.29445 0.10662,-0.097 0.15491,-0.18599 0.0481,-0.089 0.0641,-0.16024" />
    <path
       id="STROKE_18b03615-52e6-437f-bf30-85ff513dd46e"
       opacity="1"
       fill="none"
       stroke="#000000"
       stroke-width="0.452497"
       stroke-opacity="1"
       stroke-linecap="round"
       stroke-linejoin="round"
       d="m 65.687037,104.13196 0.0838,-1.80658" />
    <path
       id="STROKE_851285fd-ee69-4027-94e6-3de56fef048d"
       opacity="1"
       fill="none"
       stroke="#000000"
       stroke-width="0.452497"
       stroke-opacity="1"
       stroke-linecap="round"
       stroke-linejoin="round"
       d="m 44.110567,104.05084 0.0173,-1.73491" />
    <path
       id="STROKE_7d4ae92a-d3a8-4063-bbe4-13c5b59d7cc6"
       opacity="1"
       fill="none"
       stroke="#000000"
       stroke-width="0.452497"
       stroke-opacity="1"
       stroke-linecap="round"
       stroke-linejoin="round"
       d="m 44.717877,98.371413 q -0.47885,0.151515 -0.75115,0.341516 -0.27232,0.190001 -0.37685,0.269549 -0.10453,0.07955 -0.16569,0.192432 -0.0613,0.113029 -0.0789,0.172118 -0.0173,0.05923 -0.0138,0.07182 0.004,0.01245 -0.003,-0.0028 -0.007,-0.01516 5.6e-4,0.04907 0.007,0.06438 0.006,0.08227 -0.002,0.01803 -8.9e-4,0.01488 5.5e-4,-0.0031 0.006,-0.01603 0.006,-0.01301 0.002,0.05023 -0.003,0.06338 0.16398,0.262396 0.1671,0.199156 0.33445,0.292726 0.16723,0.0937 0.34284,0.18142 0.17576,0.0879 0.26713,0.1239 0.0915,0.0361 0.14021,0.0554 0.0487,0.0193 0.0992,0.0379 0.0505,0.0186 0.11754,0.0396 0.067,0.021 0.17268,0.0597 0.10565,0.0386 0.58884,0.17855 0.48305,0.14007 1.19027,0.26941 0.70722,0.12934 1.10142,0.18685 0.39419,0.0574 0.79902,0.10573 0.40482,0.0484 0.72178,0.0823 0.31708,0.0338 0.96959,0.0828 0.65265,0.0491 1.24919,0.0877 0.59654,0.0386 1.67066,0.0554 1.07413,0.0167 1.68172,0.006 0.60759,-0.0109 0.89236,-0.0203 0.28463,-0.01 0.3816,-0.0132 0.0968,-0.004 0.29665,-0.012 0.19998,-0.009 0.33738,-0.0162 0.13742,-0.008 0.21243,-0.0114 0.0751,-0.004 0.34088,-0.0202 0.26587,-0.0162 0.54895,-0.0376 0.28308,-0.0216 0.48472,-0.0395 0.20165,-0.0179 0.40148,-0.0365 0.19982,-0.0185 0.62425,-0.0697 0.42441,-0.0511 0.90171,-0.11059 0.47718,-0.0597 1.15194,-0.18442 0.67476,-0.12476 1.06896,-0.23579 0.39432,-0.11088 0.64019,-0.18656 0.24586,-0.0755 0.55679,-0.1704 0.31094,-0.0949 0.60326,-0.2923 0.29218,-0.1973 0.45857,-0.348528" />
    <path
       id="STROKE_3fd6ab3a-8b0a-4110-8db7-e1759facb756"
       opacity="1"
       fill="none"
       stroke="#000000"
       stroke-width="0.452497"
       stroke-opacity="1"
       stroke-linecap="round"
       stroke-linejoin="round"
       d="m 43.309737,101.48583 q -0.002,0.0388 0.16525,0.23793 0.16708,0.19901 0.33431,0.29272 0.16721,0.0936 0.34298,0.18142 0.17561,0.0877 0.26698,0.12376 0.0915,0.0362 0.14022,0.0554 0.0487,0.0193 0.0992,0.0379 0.0505,0.0186 0.11756,0.0396 0.0671,0.021 0.17266,0.0597 0.10581,0.0386 0.58885,0.17869 0.48305,0.13993 1.19028,0.26927 0.70723,0.12948 1.10155,0.18685 0.39419,0.0575 0.79889,0.10588 0.40482,0.0482 0.72191,0.0821 0.31695,0.0339 0.9696,0.0828 0.65251,0.0491 1.24904,0.0877 0.59654,0.0386 1.67081,0.0555 1.07412,0.0167 1.68158,0.006 0.60758,-0.011 0.89235,-0.0204 0.28462,-0.009 0.38159,-0.013 0.097,-0.004 0.2968,-0.0122 0.19984,-0.009 0.33725,-0.0162 0.13742,-0.007 0.21256,-0.0114 0.075,-0.004 0.34087,-0.02 0.26588,-0.0162 0.54882,-0.0378 0.28309,-0.0216 0.48473,-0.0395 0.20164,-0.0179 0.40147,-0.0363 0.19982,-0.0186 0.62424,-0.0697 0.42442,-0.0512 0.90173,-0.11074 0.47717,-0.0595 1.15207,-0.18428 0.67477,-0.12476 1.06895,-0.23578 0.3942,-0.11103 0.64006,-0.18657 0.24601,-0.0757 0.55694,-0.17055 0.31093,-0.0949 0.60311,-0.29215 0.29232,-0.19744 0.39895,-0.29444 0.10677,-0.0971 0.1549,-0.18614 0.0481,-0.089 0.0641,-0.16024" />
    <path
       id="STROKE_f06d81df-38c9-4d9d-be45-a75969bb8db2"
       opacity="1"
       fill="none"
       stroke="#000000"
       stroke-width="0.452497"
       stroke-opacity="1"
       stroke-linecap="round"
       stroke-linejoin="round"
       d="m 64.955887,101.45106 0.0738,-1.585965" />
    <path
       id="STROKE_4465ab85-7eac-4fba-9347-75474a719476"
       opacity="1"
       fill="none"
       stroke="#000000"
       stroke-width="0.452497"
       stroke-opacity="1"
       stroke-linecap="round"
       stroke-linejoin="round"
       d="m 43.310847,101.44491 0.0181,-1.822753" />
    <path
       id="STROKE_bbd6f17c-c276-4972-945f-d0ef25adc8e6"
       opacity="1"
       fill="none"
       stroke="#000000"
       stroke-width="0.452497"
       stroke-opacity="1"
       stroke-linecap="round"
       stroke-linejoin="round"
       d="m 55.670747,94.520032 q 0.0117,4.46e-4 -0.0429,0 -0.0546,-4.47e-4 -0.27498,0.0011 -0.22025,0.0014 -0.32884,0.0028 -0.10845,0.0014 -0.16848,0.0024 -0.06,8.97e-4 -0.0717,0.0012 -0.0117,1.42e-4 -0.0178,0.0014 -0.007,0.0012 0.0369,-0.0039 0.0431,-0.005 -0.52489,0.01388 -0.56785,0.01902 -0.88368,0.03105 -0.31569,0.01217 -0.80643,0.04392 -0.49075,0.03177 -0.93714,0.06181 -0.44652,0.0299 -1.20581,0.120039 -0.75914,0.09014 -1.16774,0.153946 -0.40874,0.06396 -0.64776,0.106446 -0.23914,0.04249 -0.66538,0.135204 -0.42609,0.09257 -0.87557,0.20717 -0.44945,0.114602 -0.87247,0.248518 -0.42303,0.133915 -0.69533,0.323917 -0.27232,0.190001 -0.37685,0.269549 -0.10439,0.07941 -0.16568,0.192434 -0.0613,0.113027 -0.0787,0.172116 -0.0175,0.05909 -0.0139,0.07168 0.004,0.01258 -0.003,-0.0026 -0.007,-0.01531 5.6e-4,0.04907 0.007,0.06424 0.006,0.08227 -0.002,0.01789 -0.002,0.01488 5.5e-4,-0.0031 0.006,-0.01616 0.005,-0.01287 0.002,0.05036 -0.003,0.06324 0.16414,0.262396 0.16709,0.199158 0.3343,0.292728 0.16722,0.09357 0.34284,0.181416 0.17576,0.0877 0.26713,0.123901 0.0915,0.03605 0.14021,0.05537 0.0487,0.01918 0.0992,0.03777 0.0505,0.01859 0.11755,0.03963 0.067,0.02104 0.17268,0.05966 0.10579,0.03863 0.58884,0.178699 0.48304,0.139925 1.19027,0.269406 0.70722,0.129338 1.10155,0.18671 0.39419,0.05751 0.79888,0.105874 0.40482,0.04837 0.72192,0.08212 0.31694,0.0339 0.96959,0.08298 0.65251,0.04894 1.24905,0.08756 0.59653,0.03878 1.67066,0.05551 1.07413,0.01674 1.68173,0.0059 0.60758,-0.01087 0.89235,-0.02045 0.28462,-0.0095 0.3816,-0.01301 0.097,-0.0036 0.29679,-0.01217 0.19983,-0.0086 0.33725,-0.01603 0.13741,-0.0076 0.21255,-0.01159 0.075,-0.0039 0.34088,-0.02003 0.26574,-0.01616 0.54882,-0.03777 0.28308,-0.02161 0.48472,-0.0395 0.20165,-0.01789 0.40148,-0.03634 0.19982,-0.01859 0.62424,-0.06968 0.42442,-0.05122 0.90173,-0.110739 0.47717,-0.05952 1.15193,-0.184278 0.6749,-0.12476 1.06909,-0.235783 0.3942,-0.111025 0.64006,-0.186567 0.246,-0.07554 0.55693,-0.170544 0.31093,-0.09486 0.60312,-0.292155 0.29231,-0.197441 0.39895,-0.294445 0.10662,-0.097 0.1549,-0.186137 0.0481,-0.08899 0.06,-0.141643 0.0117,-0.05279 0.0111,-0.08599 -8.3e-4,-0.03319 7.1e-4,-0.07512 0.002,-0.04206 -0.006,-0.05136 -0.007,-0.0093 -0.009,-0.0029 -0.002,0.0066 -0.0107,-0.07798 -0.008,-0.08441 -0.17016,-0.253239 -0.16163,-0.168684 -0.33207,-0.270122 -0.17057,-0.101438 -0.31428,-0.170972 -0.14385,-0.06953 -0.22011,-0.100724 -0.0762,-0.03119 -0.13841,-0.0568 -0.0619,-0.02562 -0.16191,-0.06124 -0.0999,-0.03562 -0.19128,-0.06853 -0.0914,-0.03291 -0.35753,-0.108164 -0.26633,-0.07519 -0.54424,-0.157036 -0.27805,-0.08184 -1.17292,-0.247516 -0.89474,-0.165821 -1.497,-0.23607 -0.60229,-0.07025 -0.89194,-0.100295 -0.28981,-0.03004 -0.43366,-0.04279 -0.14385,-0.01287 -0.18764,-0.01674 -0.0437,-0.0039 -0.11111,-0.0092 -0.0675,-0.0053 -0.14693,-0.01245 -0.0794,-0.0072 -0.39937,-0.03047 -0.32003,-0.02347 -0.55582,-0.03734 -0.23593,-0.01373 -0.4338,-0.02375 -0.19786,-0.01002 -0.26754,-0.0133 -0.0696,-0.0033 -0.2106,-0.009 -0.14105,-0.0057 -0.24055,-0.0093 -0.0994,-0.0036 -0.17017,-0.0059 -0.0706,-0.0022 -0.0586,-0.0018 0.012,2.85e-4 -0.11572,-0.0038 -0.12761,-0.0041 -0.31261,-0.0083 -0.18499,-0.0043 -0.25552,-0.0057 -0.0705,-0.0013 -0.10635,-0.0018 -0.0359,-5.68e-4 -0.0784,-0.0012 -0.0423,-7.19e-4 -0.0797,-0.0013 -0.0374,-5.67e-4 -0.0472,-5.67e-4 -0.01,-1.43e-4 0.005,1.44e-4 0.0138,2.86e-4 -0.0639,-8.98e-4 -0.0777,-0.0011 -0.20963,-0.0022 -0.13167,-0.0011 -0.23704,-0.0013 -0.10537,-2.87e-4 -0.18176,-2.87e-4 -0.0764,0 -0.1093,1.43e-4 -0.0329,0 -0.0289,0 0.005,0 0.003,0 -8.8e-4,0 -8.3e-4,0 2.8e-4,0 -0.0802,2.86e-4 -0.0804,2.85e-4 -0.081,4.47e-4 -4.2e-4,0 -0.0321,1.43e-4" />
    <path
       id="STROKE_dadff0c6-142a-4022-a338-86bd249fe1fc"
       opacity="1"
       fill="none"
       stroke="#000000"
       stroke-width="0.452497"
       stroke-opacity="1"
       stroke-linecap="round"
       stroke-linejoin="round"
       d="m 44.863687,98.743546 q -0.002,0.03878 0.16526,0.237786 0.16709,0.199158 0.33431,0.292728 0.16722,0.09371 0.34297,0.181417 0.17562,0.08785 0.26713,0.123901 0.0914,0.03605 0.14008,0.05537 0.0487,0.01931 0.0992,0.03791 0.0507,0.01859 0.11754,0.03963 0.067,0.02103 0.17268,0.05966 0.1058,0.03863 0.58885,0.178555 0.48318,0.140067 1.19041,0.269407 0.70722,0.12934 1.10142,0.18685 0.39418,0.0574 0.79901,0.10573 0.40469,0.0484 0.72178,0.0823 0.31708,0.0338 0.9696,0.0828 0.6525,0.0489 1.24918,0.0877 0.59654,0.0386 1.67067,0.0554 1.07412,0.0167 1.68172,0.006 0.60759,-0.0109 0.89221,-0.0203 0.28477,-0.01 0.3816,-0.0132 0.097,-0.004 0.29679,-0.0122 0.19984,-0.008 0.33725,-0.016 0.13756,-0.008 0.21256,-0.0114 0.075,-0.004 0.34087,-0.0202 0.26588,-0.0162 0.54896,-0.0378 0.28309,-0.0215 0.48473,-0.0393 0.2015,-0.0179 0.40133,-0.0365 0.19982,-0.0185 0.62439,-0.0697 0.42442,-0.0511 0.90158,-0.11073 0.47731,-0.0595 1.15208,-0.18428 0.67476,-0.12476 1.06895,-0.23579 0.39419,-0.110877 0.64005,-0.186563 0.246,-0.07554 0.55693,-0.170401 0.31094,-0.095 0.60312,-0.292298 0.29231,-0.197298 0.39895,-0.294443 0.10677,-0.097 0.1549,-0.185996 0.0481,-0.08899 0.0641,-0.160242" />
    <path
       id="STROKE_ba92f2d6-7463-47e7-b168-670d38f64992"
       opacity="1"
       fill="none"
       stroke="#000000"
       stroke-width="0.452497"
       stroke-opacity="1"
       stroke-linecap="round"
       stroke-linejoin="round"
       d="m 66.509977,98.766724 0.0838,-1.806582" />
    <path
       id="STROKE_d317cf59-8884-4be2-abf7-21ee8142b014"
       opacity="1"
       fill="none"
       stroke="#000000"
       stroke-width="0.452497"
       stroke-opacity="1"
       stroke-linecap="round"
       stroke-linejoin="round"
       d="m 44.791057,98.805496 0.0182,-1.822892" />
    <path
       id="STROKE_25a9c83d-75db-493c-9891-a92e4767e607"
       opacity="1"
       fill="none"
       stroke="#000000"
       stroke-width="0.452497"
       stroke-opacity="1"
       stroke-linecap="round"
       stroke-linejoin="round"
       d="m 70.318837,93.642422 q -0.0316,0.01001 -0.30394,0.200016 -0.27231,0.190001 -0.3767,0.26955 -0.10453,0.07941 -0.16582,0.192433 -0.0613,0.113027 -0.0787,0.172116 -0.0175,0.05909 -0.0138,0.07168 0.004,0.01258 -0.003,-0.0026 -0.007,-0.01531 5.5e-4,0.04908 0.007,0.06424 0.006,0.08226 -0.002,0.01789 -8.9e-4,0.01488 4.3e-4,-0.0031 0.006,-0.01616 0.005,-0.01287 0.002,0.05035 -0.004,0.06324 0.16399,0.262397 0.16709,0.199157 0.3343,0.292726 0.16723,0.09357 0.34298,0.181417 0.17562,0.0877 0.26714,0.123902 0.0914,0.03605 0.14006,0.05537 0.0487,0.01918 0.0992,0.03777 0.0505,0.01859 0.11754,0.03977 0.0671,0.02089 0.17268,0.05953 0.10579,0.03863 0.58884,0.178699 0.48319,0.139924 1.19041,0.269407 0.70722,0.129337 1.10142,0.186709 0.39419,0.05752 0.79902,0.105874 0.40468,0.04836 0.72177,0.08212 0.3171,0.0339 0.96959,0.08298 0.65252,0.04893 1.24906,0.08756 0.59667,0.03878 1.6708,0.05551 1.07413,0.01674 1.68172,0.0059 0.60759,-0.01087 0.89221,-0.02045 0.28476,-0.0094 0.38161,-0.01301 0.097,-0.0036 0.29679,-0.01217 0.19983,-0.0086 0.33724,-0.01603 0.13756,-0.0076 0.21256,-0.01159 0.075,-0.0039 0.34088,-0.02004 0.26587,-0.01616 0.54895,-0.03777 0.28309,-0.02161 0.4846,-0.03949 0.20164,-0.01775 0.40147,-0.03634 0.19983,-0.01845 0.62424,-0.06967 0.42456,-0.05122 0.90173,-0.110738 0.47732,-0.05952 1.15207,-0.184278 0.67475,-0.124759 1.06895,-0.235784 0.3942,-0.111025 0.64006,-0.186567 0.246,-0.07554 0.55693,-0.170543 0.31093,-0.09486 0.60311,-0.292155 0.29233,-0.197298 0.37922,-0.276416" />
    <path
       id="STROKE_2dc01b79-12a1-48f5-a810-b1e239a088a2"
       opacity="1"
       fill="none"
       stroke="#000000"
       stroke-width="0.452497"
       stroke-opacity="1"
       stroke-linecap="round"
       stroke-linejoin="round"
       d="m 69.358057,96.615336 q -0.002,0.03878 0.16511,0.237786 0.16709,0.199159 0.3343,0.292728 0.16737,0.09371 0.34298,0.181416 0.17576,0.08785 0.26714,0.123902 0.0915,0.03605 0.1402,0.05537 0.0487,0.01931 0.0992,0.03791 0.0505,0.01859 0.11755,0.03963 0.067,0.02103 0.17268,0.05966 0.10564,0.03863 0.58884,0.178556 0.48305,0.140068 1.19027,0.269406 0.70722,0.129337 1.10141,0.186853 0.3942,0.05737 0.79903,0.105731 0.40482,0.04836 0.72177,0.08227 0.31709,0.03377 0.96959,0.08284 0.65265,0.04907 1.2492,0.0877 0.59653,0.03863 1.67065,0.05537 1.07413,0.01688 1.68173,0.0059 0.60759,-0.01087 0.89221,-0.02031 0.28476,-0.0096 0.38174,-0.01317 0.0968,-0.0036 0.29666,-0.01202 0.19983,-0.0086 0.33738,-0.01616 0.13741,-0.0076 0.21242,-0.01144 0.075,-0.0039 0.34087,-0.02017 0.26588,-0.01616 0.54896,-0.03763 0.28309,-0.02161 0.48474,-0.03949 0.20164,-0.01788 0.40146,-0.03648 0.19983,-0.01845 0.62424,-0.06968 0.42442,-0.05107 0.90173,-0.110594 0.47718,-0.05966 1.15193,-0.184423 0.67476,-0.124759 1.06896,-0.23564 0.39419,-0.111025 0.6402,-0.18671 0.24586,-0.07554 0.55679,-0.1704 0.31093,-0.09486 0.60325,-0.292298 0.29219,-0.197299 0.39895,-0.294301 0.10664,-0.09715 0.15477,-0.186138 0.0483,-0.089 0.0643,-0.160242" />
    <path
       id="STROKE_812a58ef-8919-4357-9815-d458211929d2"
       opacity="1"
       fill="none"
       stroke="#000000"
       stroke-width="0.452497"
       stroke-opacity="1"
       stroke-linecap="round"
       stroke-linejoin="round"
       d="m 91.004217,96.618054 0.0718,-1.546046" />
    <path
       id="STROKE_4cb24aa2-7cba-4d3a-9fac-a6fc44e5e13f"
       opacity="1"
       fill="none"
       stroke="#000000"
       stroke-width="0.452497"
       stroke-opacity="1"
       stroke-linecap="round"
       stroke-linejoin="round"
       d="m 69.341967,96.574416 0.018,-1.822891" />
    <path
       id="STROKE_eae8829e-8d25-4696-b8f5-571625e65a88"
       opacity="1"
       fill="none"
       stroke="#000000"
       stroke-width="0.452497"
       stroke-opacity="1"
       stroke-linecap="round"
       stroke-linejoin="round"
       d="m 70.822877,92.254759 q 0.14945,0.178125 0.31667,0.271694 0.16736,0.09371 0.34297,0.181416 0.17577,0.08785 0.26713,0.123903 0.0915,0.03605 0.14022,0.05537 0.0487,0.01931 0.0992,0.03791 0.0505,0.0186 0.11754,0.03963 0.067,0.02103 0.17268,0.05966 0.10566,0.03863 0.58884,0.178556 0.48304,0.140068 1.19027,0.269406 0.70723,0.129338 1.10143,0.186853 0.39419,0.05737 0.79901,0.105731 0.40483,0.04836 0.72178,0.08227 0.31708,0.03376 0.9696,0.08284 0.65264,0.04906 1.24918,0.0877 0.59654,0.03863 1.67067,0.05537 1.07412,0.01688 1.68172,0.0059 0.60759,-0.01087 0.89221,-0.02031 0.28477,-0.0096 0.38174,-0.01317 0.0968,-0.0036 0.29665,-0.01203 0.19997,-0.0086 0.33739,-0.01616 0.13741,-0.0076 0.21242,-0.01144 0.075,-0.0039 0.34087,-0.02017 0.26588,-0.01616 0.54896,-0.03763 0.28308,-0.0216 0.48473,-0.03949 0.20164,-0.01788 0.40147,-0.03648 0.19982,-0.01845 0.62424,-0.06967 0.42442,-0.05107 0.90173,-0.110595 0.47718,-0.05967 1.15194,-0.184423 0.67476,-0.12476 1.06895,-0.23564 0.39419,-0.111024 0.64019,-0.18671 0.24586,-0.07554 0.5568,-0.1704 0.31093,-0.09486 0.60325,-0.292299 0.29218,-0.197297 0.39895,-0.2943 0.10663,-0.09715 0.15476,-0.186137 0.0483,-0.089 0.0601,-0.141787 0.0119,-0.05279 0.0111,-0.08585 -7.1e-4,-0.03319 8.3e-4,-0.07526 8.8e-4,-0.04206 -0.006,-0.05122 -0.007,-0.0093 -0.009,-0.0029 -0.002,0.0065 -0.0107,-0.07797 -0.008,-0.08455 -0.17016,-0.25324 -0.16161,-0.168825 -0.35276,-0.282425" />
    <path
       id="STROKE_bb410ef4-7477-4072-bc63-9caf8ed6d8eb"
       opacity="1"
       fill="none"
       stroke="#000000"
       stroke-width="0.452497"
       stroke-opacity="1"
       stroke-linecap="round"
       stroke-linejoin="round"
       d="m 70.610177,93.860609 q -0.002,0.03878 0.16526,0.23793 0.16708,0.199015 0.3343,0.292727 0.16721,0.09357 0.34284,0.181273 0.17575,0.08785 0.26713,0.123902 0.0915,0.03619 0.14022,0.05537 0.0487,0.0193 0.0992,0.03791 0.0505,0.0186 0.11755,0.03963 0.067,0.02103 0.17268,0.05966 0.10579,0.03863 0.58883,0.178699 0.48306,0.139925 1.19028,0.269263 0.70723,0.129482 1.10155,0.186854 0.39419,0.05751 0.79888,0.105874 0.40483,0.04822 0.72192,0.08212 0.31695,0.0339 0.9696,0.08284 0.65252,0.04906 1.24904,0.0877 0.59654,0.03878 1.67067,0.05551 1.07413,0.01674 1.68172,0.0059 0.60759,-0.01101 0.89236,-0.02045 0.28462,-0.0094 0.38159,-0.01301 0.097,-0.0036 0.2968,-0.01217 0.19982,-0.0086 0.33724,-0.01616 0.13742,-0.0074 0.21256,-0.01144 0.075,-0.0039 0.34089,-0.02004 0.26572,-0.01616 0.54881,-0.03777 0.28309,-0.0216 0.48473,-0.0395 0.20165,-0.01788 0.40146,-0.03634 0.19983,-0.01859 0.62425,-0.06967 0.42441,-0.05121 0.90173,-0.110738 0.47717,-0.05952 1.15193,-0.184278 0.6749,-0.12476 1.06909,-0.235785 0.39419,-0.111025 0.64005,-0.186567 0.24601,-0.07569 0.55694,-0.170543 0.31094,-0.09486 0.60312,-0.292155 0.29231,-0.19744 0.39895,-0.294443 0.10662,-0.09715 0.1549,-0.186138 0.0481,-0.089 0.0641,-0.160243" />
    <path
       id="STROKE_9ff3ce71-c024-43d3-b506-3eefddd4e146"
       opacity="1"
       fill="none"
       stroke="#000000"
       stroke-width="0.452497"
       stroke-opacity="1"
       stroke-linecap="round"
       stroke-linejoin="round"
       d="m 92.204827,93.975926 0.0838,-1.806582" />
    <path
       id="STROKE_9dad2191-8f06-49f4-9de8-3be111cc2aa9"
       opacity="1"
       fill="none"
       stroke="#000000"
       stroke-width="0.452497"
       stroke-opacity="1"
       stroke-linecap="round"
       stroke-linejoin="round"
       d="m 70.628497,93.894804 0.0172,-1.734904" />
    <path
       id="STROKE_8f4b7b6d-1175-415e-9854-7ce4cc9b2909"
       opacity="1"
       fill="none"
       stroke="#000000"
       stroke-width="0.452497"
       stroke-opacity="1"
       stroke-linecap="round"
       stroke-linejoin="round"
       d="m 71.235677,88.215236 q -0.47886,0.151657 -0.75116,0.341657 -0.27232,0.190002 -0.37685,0.269408 -0.10439,0.07954 -0.16568,0.192576 -0.0613,0.112885 -0.0788,0.172117 -0.0173,0.05909 -0.0138,0.07168 0.004,0.01259 -0.003,-0.0028 -0.007,-0.01517 5.6e-4,0.04921 0.007,0.06424 0.006,0.08227 -0.002,0.01789 -8.9e-4,0.01473 5.6e-4,-0.0031 0.006,-0.01603 0.005,-0.01287 0.002,0.05036 -0.003,0.06324 0.16414,0.262397 0.16694,0.199014 0.3343,0.292728 0.16722,0.09357 0.34283,0.181416 0.17576,0.0877 0.26714,0.123757 0.0915,0.03619 0.14021,0.05537 0.0487,0.01931 0.0992,0.03791 0.0505,0.01859 0.11754,0.03963 0.0671,0.02103 0.17268,0.05966 0.10566,0.03863 0.58884,0.178698 0.48305,0.139925 1.19027,0.269262 0.70722,0.129482 1.10142,0.186854 0.39434,0.05751 0.79902,0.105874 0.40483,0.04822 0.72178,0.08212 0.31709,0.0339 0.96973,0.08284 0.65251,0.04907 1.24905,0.0877 0.59653,0.03878 1.67067,0.05551 1.07413,0.01674 1.68172,0.0059 0.60759,-0.01101 0.89234,-0.02045 0.28463,-0.0094 0.38161,-0.01301 0.0968,-0.0036 0.2968,-0.01217 0.19982,-0.0086 0.33724,-0.01616 0.13741,-0.0074 0.21242,-0.01144 0.0751,-0.0039 0.34087,-0.02004 0.26587,-0.01616 0.54896,-0.03777 0.28309,-0.02161 0.48474,-0.03949 0.20164,-0.01789 0.40146,-0.03634 0.19983,-0.01859 0.62424,-0.06967 0.42442,-0.05122 0.90173,-0.110739 0.47718,-0.05952 1.15194,-0.184279 0.67475,-0.124759 1.06894,-0.235783 0.39434,-0.111025 0.64021,-0.186568 0.24586,-0.07569 0.55679,-0.170543 0.31093,-0.09486 0.60325,-0.292155 0.29219,-0.197439 0.45856,-0.348668" />
    <path
       id="STROKE_331b9fa3-a02e-426c-a940-4bb86cdebe3d"
       opacity="1"
       fill="none"
       stroke="#000000"
       stroke-width="0.452497"
       stroke-opacity="1"
       stroke-linecap="round"
       stroke-linejoin="round"
       d="m 69.827527,91.329791 q -0.002,0.03863 0.16526,0.237787 0.16708,0.199159 0.33431,0.292728 0.16721,0.09357 0.34297,0.181417 0.17561,0.0877 0.26713,0.123899 0.0914,0.03605 0.14008,0.05537 0.0487,0.01931 0.0992,0.03791 0.0505,0.01859 0.11755,0.03963 0.0671,0.02104 0.17268,0.05966 0.10579,0.03849 0.58884,0.178555 0.48305,0.140068 1.19027,0.269407 0.70723,0.129337 1.10156,0.186852 0.39419,0.05737 0.79902,0.105733 0.40469,0.04836 0.72177,0.08227 0.31696,0.03376 0.96961,0.08284 0.6525,0.04893 1.24904,0.0877 0.59667,0.03863 1.67081,0.05537 1.07412,0.01674 1.68172,0.0059 0.60744,-0.01087 0.89221,-0.02045 0.28476,-0.0095 0.3816,-0.01301 0.097,-0.0036 0.2968,-0.01217 0.19982,-0.0084 0.33723,-0.01603 0.13757,-0.0076 0.21256,-0.01159 0.075,-0.0039 0.34088,-0.02003 0.26588,-0.01616 0.54896,-0.03777 0.28294,-0.0216 0.48459,-0.03934 0.20164,-0.01789 0.40146,-0.03648 0.19983,-0.01846 0.62425,-0.06968 0.42456,-0.05107 0.90174,-0.110739 0.4773,-0.05953 1.15206,-0.184279 0.67477,-0.124758 1.06895,-0.235783 0.3942,-0.111025 0.64006,-0.186566 0.246,-0.07554 0.55693,-0.170401 0.31093,-0.095 0.60312,-0.292298 0.29232,-0.197298 0.39895,-0.294445 0.10677,-0.097 0.1549,-0.185995 0.0481,-0.08899 0.0641,-0.160241" />
    <path
       id="STROKE_0eabf26e-65b5-464c-8887-1d8e07a08ad9"
       opacity="1"
       fill="none"
       stroke="#000000"
       stroke-width="0.452497"
       stroke-opacity="1"
       stroke-linecap="round"
       stroke-linejoin="round"
       d="m 91.473817,91.294881 0.0736,-1.585821" />
    <path
       id="STROKE_8149d96e-76df-4f5e-9f08-7dbd8adcaef9"
       opacity="1"
       fill="none"
       stroke="#000000"
       stroke-width="0.452497"
       stroke-opacity="1"
       stroke-linecap="round"
       stroke-linejoin="round"
       d="m 69.828647,91.288872 0.0181,-1.822893" />
    <path
       id="STROKE_6a8a68b2-06dd-4469-9dd1-0aa80edc3832"
       opacity="1"
       fill="none"
       stroke="#000000"
       stroke-width="0.452497"
       stroke-opacity="1"
       stroke-linecap="round"
       stroke-linejoin="round"
       d="m 82.188547,84.363855 q 0.0117,4.45e-4 -0.0429,0 -0.0546,-4.46e-4 -0.27497,0.0011 -0.22025,0.0014 -0.32884,0.0029 -0.10845,0.0014 -0.16848,0.0023 -0.0601,0.0011 -0.0717,0.0012 -0.0117,2.87e-4 -0.0178,0.0014 -0.007,0.0012 0.0369,-0.0039 0.043,-0.0051 -0.52489,0.01388 -0.56785,0.01888 -0.88369,0.03105 -0.31568,0.01217 -0.80642,0.04392 -0.49075,0.03162 -0.93714,0.06167 -0.44653,0.03004 -1.20567,0.120182 -0.75928,0.09014 -1.16788,0.153947 -0.40861,0.06381 -0.64776,0.106302 -0.23914,0.04249 -0.66525,0.135204 -0.42623,0.09271 -0.8757,0.207313 -0.44945,0.114601 -0.87248,0.248374 -0.42302,0.133919 -0.69532,0.323918 -0.27232,0.190001 -0.37685,0.26955 -0.10439,0.07955 -0.16568,0.192433 -0.0613,0.113027 -0.0787,0.172117 -0.0175,0.05923 -0.0137,0.07182 0.004,0.01245 -0.003,-0.0028 -0.007,-0.01517 5.6e-4,0.04907 0.007,0.06438 0.006,0.08227 -0.002,0.01803 -8.8e-4,0.01488 4.3e-4,-0.0031 0.006,-0.01602 0.005,-0.01301 0.002,0.05023 -0.003,0.06338 0.16414,0.262396 0.16708,0.199157 0.3343,0.292727 0.16722,0.09371 0.34298,0.181417 0.17561,0.08785 0.26713,0.123901 0.0914,0.03605 0.14007,0.05537 0.0487,0.01931 0.0992,0.03791 0.0505,0.01859 0.11754,0.03963 0.0671,0.02103 0.17268,0.05966 0.10579,0.03863 0.58884,0.178556 0.48305,0.140068 1.19027,0.269405 0.70722,0.129339 1.10156,0.186854 0.39419,0.05737 0.79888,0.105731 0.40483,0.04837 0.72191,0.08227 0.31696,0.03376 0.96961,0.08284 0.6525,0.04907 1.24904,0.0877 0.59653,0.03863 1.6708,0.05537 1.07414,0.01674 1.68158,0.0059 0.6076,-0.01088 0.89235,-0.02031 0.28463,-0.0096 0.38161,-0.01317 0.097,-0.0036 0.2968,-0.01202 0.19982,-0.0086 0.33723,-0.01616 0.13741,-0.0076 0.21256,-0.01144 0.075,-0.0039 0.34087,-0.02017 0.26588,-0.01616 0.54883,-0.03777 0.28308,-0.02147 0.48474,-0.03934 0.20164,-0.01788 0.40146,-0.03648 0.19983,-0.01845 0.62424,-0.06967 0.42442,-0.05107 0.90173,-0.110596 0.47718,-0.05966 1.15207,-0.184422 0.67475,-0.124759 1.06896,-0.235639 0.39419,-0.111026 0.64005,-0.186711 0.246,-0.07554 0.55693,-0.1704 0.31093,-0.09486 0.60311,-0.292299 0.29233,-0.197298 0.39896,-0.294444 0.10677,-0.097 0.15491,-0.185995 0.0481,-0.08899 0.06,-0.141784 0.0117,-0.05279 0.0111,-0.08599 -8.2e-4,-0.03306 7.1e-4,-0.07512 0.002,-0.04206 -0.006,-0.05122 -0.007,-0.0093 -0.009,-0.0029 -0.002,0.0065 -0.0107,-0.07797 -0.008,-0.08455 -0.17016,-0.25324 -0.16163,-0.168825 -0.33205,-0.270264 -0.17045,-0.101296 -0.3143,-0.170829 -0.14386,-0.06953 -0.22011,-0.100724 -0.0762,-0.03134 -0.1384,-0.05694 -0.0619,-0.02562 -0.1619,-0.06109 -0.0999,-0.03562 -0.19129,-0.06868 -0.0914,-0.03291 -0.35753,-0.108164 -0.26629,-0.07526 -0.5442,-0.157094 -0.27805,-0.08184 -1.17292,-0.247517 -0.89474,-0.165677 -1.49701,-0.235926 -0.60227,-0.07026 -0.89193,-0.100295 -0.28981,-0.03004 -0.43367,-0.04292 -0.14384,-0.01273 -0.1875,-0.01659 -0.0438,-0.0039 -0.11125,-0.0092 -0.0675,-0.0053 -0.14693,-0.01245 -0.0794,-0.0072 -0.39937,-0.03062 -0.32004,-0.02332 -0.55582,-0.0372 -0.23593,-0.01388 -0.43379,-0.0239 -0.19787,-0.0099 -0.26756,-0.01317 -0.0696,-0.0033 -0.21059,-0.009 -0.14105,-0.0058 -0.24055,-0.0093 -0.0994,-0.0038 -0.17016,-0.0059 -0.0706,-0.0022 -0.0586,-0.0018 0.0121,2.86e-4 -0.11572,-0.0039 -0.12761,-0.0039 -0.31262,-0.0083 -0.18499,-0.0043 -0.25551,-0.0055 -0.0705,-0.0013 -0.10635,-0.0018 -0.0359,-7.18e-4 -0.0784,-0.0013 -0.0423,-5.68e-4 -0.0797,-0.0012 -0.0375,-5.68e-4 -0.0472,-7.18e-4 -0.01,0 0.005,1.42e-4 0.0138,2.86e-4 -0.0639,-7.18e-4 -0.0777,-0.0012 -0.20962,-0.0022 -0.13168,-0.0012 -0.23705,-0.0014 -0.10523,-1.43e-4 -0.18178,-2.85e-4 -0.0764,0 -0.10928,1.42e-4 -0.0328,1.43e-4 -0.0289,1.43e-4 0.004,-1.43e-4 0.003,-1.43e-4 -8.9e-4,0 -8.3e-4,0 2.7e-4,0 -0.0802,4.46e-4 -0.0805,2.87e-4 -0.081,2.87e-4 -4.4e-4,0 -0.0321,2.85e-4" />
    <path
       id="STROKE_5fd3b536-8126-4252-a7c7-899819113d93"
       opacity="1"
       fill="none"
       stroke="#000000"
       stroke-width="0.452497"
       stroke-opacity="1"
       stroke-linecap="round"
       stroke-linejoin="round"
       d="m 71.381487,88.587368 q -0.002,0.03878 0.16526,0.237931 0.16709,0.199013 0.33431,0.292727 0.16735,0.09357 0.34297,0.181275 0.17562,0.08785 0.26713,0.123899 0.0914,0.03619 0.14008,0.05537 0.0487,0.01931 0.0994,0.03791 0.0505,0.01859 0.1174,0.03963 0.0671,0.02103 0.17282,0.05966 0.10566,0.03863 0.5887,0.178698 0.48318,0.139925 1.19041,0.269263 0.70722,0.129481 1.10143,0.186853 0.39418,0.05751 0.79901,0.105732 0.40469,0.04837 0.72178,0.08227 0.31708,0.0339 0.96959,0.08284 0.65251,0.04907 1.24919,0.0877 0.59654,0.03863 1.67067,0.05551 1.07412,0.01674 1.68172,0.0059 0.60758,-0.01101 0.89221,-0.02046 0.28477,-0.0095 0.3816,-0.01302 0.097,-0.0036 0.29679,-0.01217 0.19984,-0.0086 0.33739,-0.01616 0.13741,-0.0074 0.21241,-0.01144 0.075,-0.0039 0.34088,-0.02018 0.26587,-0.01603 0.54896,-0.03763 0.28308,-0.0216 0.48473,-0.03949 0.2015,-0.01789 0.40133,-0.03634 0.19982,-0.01859 0.62438,-0.06967 0.42442,-0.05122 0.90159,-0.110739 0.47731,-0.05952 1.15208,-0.184278 0.67475,-0.124759 1.06895,-0.235784 0.39419,-0.111025 0.64019,-0.186567 0.24586,-0.07569 0.55679,-0.170543 0.31093,-0.09486 0.60326,-0.292155 0.29218,-0.19744 0.39881,-0.294445 0.10677,-0.09715 0.1549,-0.186137 0.0483,-0.08899 0.0643,-0.160242" />
    <path
       id="STROKE_b5cf046e-eba6-49af-ba89-21bacaf58f82"
       opacity="1"
       fill="none"
       stroke="#000000"
       stroke-width="0.452497"
       stroke-opacity="1"
       stroke-linecap="round"
       stroke-linejoin="round"
       d="m 93.027777,88.610689 0.0838,-1.806582" />
    <path
       id="STROKE_d35e4bdc-2bac-400f-abcf-752a49ed086d"
       opacity="1"
       fill="none"
       stroke="#000000"
       stroke-width="0.452497"
       stroke-opacity="1"
       stroke-linecap="round"
       stroke-linejoin="round"
       d="m 71.308857,88.649319 0.0182,-1.822893" />
  </g>
</svg>
