<?xml version="1.0" encoding="UTF-8" standalone="no"?>
<!-- Created with Inkscape (http://www.inkscape.org/) -->

<svg
   width="31.109327mm"
   height="39.569988mm"
   viewBox="0 0 31.109327 39.569988"
   version="1.1"
   id="svg1"
   inkscape:version="1.3.2 (091e20e, 2023-11-25)"
   sodipodi:docname="Factory.svg"
   xmlns:inkscape="http://www.inkscape.org/namespaces/inkscape"
   xmlns:sodipodi="http://sodipodi.sourceforge.net/DTD/sodipodi-0.dtd"
   xmlns="http://www.w3.org/2000/svg"
   xmlns:svg="http://www.w3.org/2000/svg">
  <sodipodi:namedview
     id="namedview1"
     pagecolor="#ffffff"
     bordercolor="#000000"
     borderopacity="0.25"
     inkscape:showpageshadow="2"
     inkscape:pageopacity="0.0"
     inkscape:pagecheckerboard="0"
     inkscape:deskcolor="#d1d1d1"
     inkscape:document-units="mm"
     inkscape:zoom="0.2102413"
     inkscape:cx="137.93674"
     inkscape:cy="323.43788"
     inkscape:window-width="1312"
     inkscape:window-height="449"
     inkscape:window-x="0"
     inkscape:window-y="38"
     inkscape:window-maximized="0"
     inkscape:current-layer="layer1" />
  <defs
     id="defs1">
    <inkscape:path-effect
       effect="bspline"
       id="path-effect5"
       is_visible="true"
       lpeversion="1.3"
       weight="33.333333"
       steps="2"
       helper_size="0"
       apply_no_weight="true"
       apply_with_weight="true"
       only_selected="false"
       uniform="false" />
  </defs>
  <g
     inkscape:label="Layer 1"
     inkscape:groupmode="layer"
     id="layer1"
     transform="translate(-68.262503,-62.500567)">
    <rect
       style="fill:#e9e3e3;fill-opacity:1;stroke:#000000;stroke-width:0.68563;stroke-dasharray:none;stroke-opacity:1"
       id="rect2-7"
       width="23.440382"
       height="13.252147"
       x="72.484932"
       y="85.373741" />
    <rect
       style="fill:#e9e3e3;fill-opacity:1;stroke:#000000;stroke-width:0.68563;stroke-dasharray:none;stroke-opacity:1"
       id="rect2"
       width="15.041732"
       height="9.8746176"
       x="70.593239"
       y="88.841026" />
    <rect
       style="fill:none;fill-rule:evenodd;stroke:#000000;stroke-width:0.685627;stroke-miterlimit:4.8;paint-order:markers fill stroke"
       id="rect476-99"
       width="5.7751904"
       height="3.458883"
       x="74.81163"
       y="91.97525" />
    <rect
       style="fill:#79b9ff;fill-opacity:1;fill-rule:evenodd;stroke:none;stroke-width:0.891327;stroke-miterlimit:4.8;paint-order:markers fill stroke"
       id="rect1-7"
       width="2.2592654"
       height="2.7463894"
       x="75.144127"
       y="92.321457" />
    <rect
       style="fill:#79b9ff;fill-opacity:1;fill-rule:evenodd;stroke:none;stroke-width:0.891327;stroke-miterlimit:4.8;paint-order:markers fill stroke"
       id="rect1-3-0"
       width="2.2592654"
       height="2.7463894"
       x="77.975449"
       y="92.317772" />
    <rect
       style="fill:none;fill-rule:evenodd;stroke:#000000;stroke-width:0.685627;stroke-miterlimit:4.8;paint-order:markers fill stroke"
       id="rect476-99-7"
       width="5.7751904"
       height="3.458883"
       x="88.517235"
       y="87.543846" />
    <rect
       style="fill:#79b9ff;fill-opacity:1;fill-rule:evenodd;stroke:none;stroke-width:0.891327;stroke-miterlimit:4.8;paint-order:markers fill stroke"
       id="rect1-7-1"
       width="2.2592654"
       height="2.7463894"
       x="88.849731"
       y="87.89006" />
    <rect
       style="fill:#79b9ff;fill-opacity:1;fill-rule:evenodd;stroke:none;stroke-width:0.891327;stroke-miterlimit:4.8;paint-order:markers fill stroke"
       id="rect1-3-0-3"
       width="2.2592654"
       height="2.7463894"
       x="91.681053"
       y="87.886368" />
    <path
       style="fill:#e9e3e3;fill-opacity:0.545098;stroke:#000000;stroke-width:0.68563;stroke-dasharray:none;stroke-opacity:1"
       d="m 73.498708,76.519214 -0.990517,8.787926 h 8.490138 l -0.990516,-8.857122 z"
       id="path2" />
    <path
       style="fill:#f3eee6;fill-opacity:1;stroke:#000000;stroke-width:0.68563;stroke-dasharray:none;stroke-opacity:1"
       d="m 73.074202,79.633047 h 7.145866"
       id="path3" />
    <path
       style="fill:#f3eee6;fill-opacity:1;stroke:#000000;stroke-width:0.68563;stroke-dasharray:none;stroke-opacity:1"
       d="m 72.649693,82.677683 h 7.711876"
       id="path4" />
    <rect
       style="fill:#1c1c18;fill-opacity:1;stroke:#000000;stroke-width:0.753309;stroke-dasharray:none;stroke-opacity:1"
       id="rect4"
       width="7.7516508"
       height="1.7595105"
       x="72.780586"
       y="74.941261"
       ry="0.87975526" />
    <rect
       style="fill:#1c1c18;fill-opacity:1;stroke:#000000;stroke-width:1.60387;stroke-dasharray:none;stroke-opacity:1"
       id="rect4-4"
       width="29.505457"
       height="2.0954385"
       x="69.064438"
       y="99.17318"
       ry="1.0477192" />
    <path
       style="fill:#e9e3e3;fill-opacity:0.545098;stroke:#000000;stroke-width:1;stroke-dasharray:none;stroke-opacity:1"
       d="m 49.924321,74.802996 c 0.111315,-0.667882 0.222629,-1.335767 0.139141,-1.89234 -0.08349,-0.556574 -0.361769,-1.001823 -0.139133,-1.558399 0.222636,-0.556576 0.946162,-1.224446 1.474908,-1.558388 0.528745,-0.333942 0.862678,-0.333942 1.085308,-0.584403 0.22263,-0.250462 0.333941,-0.751365 0.05565,-1.335771 -0.278292,-0.584405 -0.946162,-1.252274 -1.836684,-1.50273 -0.890523,-0.250455 -2.003641,-0.08349 -2.671528,-0.862703 -0.667887,-0.779215 -0.89051,-2.504547 -0.194781,-3.506375 0.695729,-1.001829 2.309748,-1.280108 3.395065,-1.892345 1.085317,-0.612236 1.641876,-1.558386 2.448914,-1.808838 0.807037,-0.250452 1.864497,0.194794 2.699358,0.111304 0.834861,-0.08349 1.447078,-0.695708 2.504575,-0.612215 1.057497,0.08349 2.560206,0.862676 2.894139,1.753198 0.333933,0.890522 -0.500904,1.892327 -0.584382,2.72719 -0.08348,0.834863 0.58439,1.502732 0.278265,2.198452 -0.306125,0.69572 -1.586211,1.419247 -2.588043,2.393256 -1.001833,0.974009 -1.725361,2.198439 -1.864499,3.116785 -0.139138,0.918346 0.306108,1.53056 0.222617,2.059305 -0.08349,0.528746 -0.695708,0.973995 -0.834846,1.391426 -0.139139,0.417431 0.194796,0.807022 -0.111326,1.085309 -0.306123,0.278287 -1.252273,0.445255 -2.198441,0.612226"
       id="path5"
       inkscape:path-effect="#path-effect5"
       inkscape:original-d="m 49.924321,74.802996 c 0.111316,-0.667882 0.222628,-1.335767 0.333944,-2.003649 -0.278291,-0.445265 -0.556572,-0.890514 -0.834856,-1.335768 0.723556,-0.667898 1.447081,-1.33577 2.170623,-2.003652 0.33395,0 0.667883,0 1.001827,0 0.111315,-0.500923 0.222625,-1.001827 0.333941,-1.502739 -0.667898,-0.667898 -1.335768,-1.335767 -2.003653,-2.003652 -1.11316,0.166973 -2.226278,0.333941 -3.33942,0.500912 -0.222631,-1.725401 -0.445254,-3.450733 -0.667882,-5.176099 1.614085,-0.278292 3.228104,-0.55657 4.842158,-0.834856 0.55658,-0.946187 1.113139,-1.892337 1.669709,-2.838506 1.057505,0.445265 2.114965,0.890511 3.172449,1.335768 0.612238,-0.612238 1.224455,-1.224455 1.836682,-1.836682 1.502767,0.779214 3.005476,1.558396 4.508214,2.337594 -0.834871,1.001847 -1.669708,2.003652 -2.504564,3.005478 0.667898,0.667899 1.335767,1.335768 2.003652,2.003653 -1.280136,0.723553 -2.560222,1.44708 -3.840331,2.170623 -0.723556,1.224476 -1.447083,2.448907 -2.170624,3.673361 0.445265,0.612238 0.890511,1.224452 1.335768,1.836679 -0.612238,0.445265 -1.224455,0.890514 -1.836682,1.335768 0.333949,0.389607 0.667885,0.779198 1.001826,1.168797 -0.946187,0.166976 -1.892337,0.333944 -2.838505,0.500914"
       transform="matrix(0.69329092,0,0,0.67805474,40.882433,23.65327)" />
  </g>
</svg>
