<?xml version="1.0" encoding="UTF-8" standalone="no"?>
<!-- Created with Inkscape (http://www.inkscape.org/) -->

<svg
   width="46.711952mm"
   height="25.490845mm"
   viewBox="0 0 46.711952 25.490845"
   version="1.1"
   id="svg1"
   inkscape:version="1.3.2 (091e20e, 2023-11-25)"
   sodipodi:docname="Truck.svg"
   xmlns:inkscape="http://www.inkscape.org/namespaces/inkscape"
   xmlns:sodipodi="http://sodipodi.sourceforge.net/DTD/sodipodi-0.dtd"
   xmlns="http://www.w3.org/2000/svg"
   xmlns:svg="http://www.w3.org/2000/svg">
  <sodipodi:namedview
     id="namedview1"
     pagecolor="#ffffff"
     bordercolor="#000000"
     borderopacity="0.25"
     inkscape:showpageshadow="2"
     inkscape:pageopacity="0.0"
     inkscape:pagecheckerboard="0"
     inkscape:deskcolor="#d1d1d1"
     inkscape:document-units="mm"
     inkscape:zoom="0.2102413"
     inkscape:cx="156.9625"
     inkscape:cy="137.93674"
     inkscape:window-width="1312"
     inkscape:window-height="449"
     inkscape:window-x="0"
     inkscape:window-y="38"
     inkscape:window-maximized="0"
     inkscape:current-layer="layer1" />
  <defs
     id="defs1">
    <inkscape:path-effect
       effect="bspline"
       id="path-effect56"
       is_visible="true"
       lpeversion="1.3"
       weight="33.333333"
       steps="2"
       helper_size="0"
       apply_no_weight="true"
       apply_with_weight="true"
       only_selected="false"
       uniform="false" />
    <inkscape:path-effect
       effect="bspline"
       id="path-effect54-4"
       is_visible="true"
       lpeversion="1.3"
       weight="33.333333"
       steps="2"
       helper_size="0"
       apply_no_weight="true"
       apply_with_weight="true"
       only_selected="false"
       uniform="false" />
    <inkscape:path-effect
       effect="bspline"
       id="path-effect54"
       is_visible="true"
       lpeversion="1.3"
       weight="33.333333"
       steps="2"
       helper_size="0"
       apply_no_weight="true"
       apply_with_weight="true"
       only_selected="false"
       uniform="false" />
    <inkscape:path-effect
       effect="bspline"
       id="path-effect68"
       is_visible="true"
       lpeversion="1.3"
       weight="33.333333"
       steps="2"
       helper_size="0"
       apply_no_weight="true"
       apply_with_weight="true"
       only_selected="false"
       uniform="false" />
  </defs>
  <g
     inkscape:label="Layer 1"
     inkscape:groupmode="layer"
     id="layer1"
     transform="translate(-63.499995,-111.3775)">
    <path
       style="fill:#000000;fill-opacity:1;stroke:#000000;stroke-width:1.66191;stroke-dasharray:none"
       d="m 142.00106,207.09972 c -3.23099,0.78169 -1.95115,3.15098 -0.21684,4.49196 1.73431,1.34098 3.923,1.65365 5.95542,1.80999 2.03242,0.15634 3.90844,0.15634 5.83663,-0.3648 1.92819,-0.52113 3.90843,-1.56336 5.10703,-2.5014 1.1986,-0.93804 1.61549,-1.77183 -2.04705,-2.59169 -3.66254,-0.81986 -11.4042,-1.62575 -14.63519,-0.84406 z"
       id="path55"
       inkscape:path-effect="#path-effect56"
       inkscape:original-d="m 137.49022,205.51212 c 1.27985,2.36929 2.55969,4.73858 3.83953,7.10786 2.18878,0.31269 4.37747,0.62535 6.56621,0.93803 1.8761,0 3.75212,0 5.62818,0 1.98032,-1.04227 3.96056,-2.08451 5.94085,-3.12676 0.41691,-0.83382 0.8338,-1.66761 1.2507,-2.50141 -7.74198,-0.80592 -15.48364,-1.61181 -23.22547,-2.41772 z"
       transform="matrix(-0.28407241,0.0080344,0.00892258,0.28280311,143.03059,73.95816)"
       sodipodi:nodetypes="ccccccc" />
    <path
       style="fill:#000000;fill-opacity:1;stroke:#000000;stroke-width:1.66191;stroke-dasharray:none"
       d="m 205.18924,203.26077 c 0,-2.63557 0,-5.27115 -1.09282,-7.84247 -1.09282,-2.57132 -3.27838,-5.07828 -6.39611,-6.17108 -3.11773,-1.09279 -7.16744,-0.77138 -10.28515,-0.48211 -3.11772,0.28927 -5.30328,0.54639 -6.65322,3.11774 -1.34993,2.57134 -1.86418,7.4567 -1.70346,11.05653 0.16071,3.59984 0.99637,5.91396 1.98737,7.61774 0.99099,1.70378 2.13724,2.7971 3.14892,3.4937 1.01169,0.6966 1.88869,0.99639 3.50339,1.09281 1.61469,0.0964 3.96707,-0.0105 6.31945,-0.11747"
       id="path54-1"
       inkscape:path-effect="#path-effect54-4"
       inkscape:original-d="m 205.18924,203.26077 c 0,-2.63557 0,-5.27115 0,-7.90673 -2.18564,-2.50706 -4.3712,-5.01402 -6.55679,-7.52103 -4.04987,0.32142 -8.09958,0.64282 -12.14937,0.96424 -2.18564,0.25713 -4.3712,0.51426 -6.5568,0.77138 -0.51427,4.88556 -1.02852,9.77092 -1.54278,14.65638 0.83569,2.31421 1.67135,4.62833 2.50702,6.94249 1.14632,1.0934 2.29257,2.18672 3.43889,3.28012 0.87705,0.2998 1.75405,0.59959 2.63107,0.89938 2.35237,-0.10694 4.70475,-0.21389 7.05713,-0.32084"
       transform="matrix(-0.28407241,0.0080344,0.00892258,0.28280311,124.6442,72.087239)"
       sodipodi:nodetypes="cccccccccc" />
    <path
       style="fill:#000000;fill-opacity:1;stroke:#000000;stroke-width:1.66191;stroke-dasharray:none"
       d="m 205.18924,203.26077 c 0,-2.63557 0,-5.27115 -1.09282,-7.84247 -1.09282,-2.57132 -3.27838,-5.07828 -6.39611,-6.17108 -3.11773,-1.09279 -7.16744,-0.77138 -10.28515,-0.48211 -3.11772,0.28927 -5.30328,0.54639 -6.65322,3.11774 -1.34993,2.57134 -1.86418,7.4567 -1.70346,11.05653 0.16071,3.59984 0.99637,5.91396 2.18561,7.77816 1.18924,1.8642 2.73198,3.27838 3.85693,4.08192 1.12495,0.80353 1.83204,0.99637 3.5034,1.0928 1.67137,0.0964 4.30689,0.0964 6.94247,0.0964"
       id="path54"
       inkscape:path-effect="#path-effect54"
       inkscape:original-d="m 205.18924,203.26077 c 0,-2.63557 0,-5.27115 0,-7.90673 -2.18564,-2.50706 -4.3712,-5.01402 -6.55679,-7.52103 -4.04987,0.32142 -8.09958,0.64282 -12.14937,0.96424 -2.18564,0.25713 -4.3712,0.51426 -6.5568,0.77138 -0.51427,4.88556 -1.02852,9.77092 -1.54278,14.65638 0.83569,2.31421 1.67135,4.62833 2.50702,6.94249 1.54281,1.41424 3.08555,2.82842 4.62833,4.24264 0.70712,0.19285 1.41421,0.38569 2.12131,0.57854 2.63563,0 5.27115,0 7.90673,0"
       transform="matrix(-0.28407241,0.0080344,0.00892258,0.28280311,142.25925,73.979975)" />
    <path
       style="fill:#57bcf9;fill-opacity:1;stroke:#000000;stroke-width:0.471256;stroke-dasharray:none"
       d="m 108.81059,128.74431 -13.007179,0.86697 -0.834802,0.0237 -0.341787,-0.23988 -0.233365,-7.39655 0.837422,0.0595 1.338301,0.0454 11.2777,-0.0694 0.57911,-0.18274 0.11495,0.99493 z"
       id="path1" />
    <path
       style="fill:#c8dffc;fill-opacity:1;stroke:#000000;stroke-width:0.471256;stroke-dasharray:none"
       d="m 107.26166,116.72682 1.16433,5.12431 -13.281216,0.12609 -0.08433,-5.32123 z"
       id="path24" />
    <path
       style="fill:#57bcf9;fill-opacity:1;stroke:#000000;stroke-width:0.471256;stroke-dasharray:none"
       d="m 106.84907,114.24305 1.23952,2.21084 -14.121256,-0.0165 -0.688815,-0.64597 -1.41916,0.0401 0.380689,-1.17531 2.817354,-0.74513 z"
       id="path25" />
    <path
       style="fill:#6a686c;fill-opacity:1;stroke:#000000;stroke-width:0.471256;stroke-dasharray:none"
       d="m 109.35128,116.7509 -2.00351,0.0567 0.99998,5.21214 1.16348,-0.19927 z"
       id="path34" />
    <path
       style="fill:#3c84f7;fill-opacity:1;stroke:#000000;stroke-width:0.471256;stroke-dasharray:none"
       d="m 94.062158,122.09102 -5.340112,0.23421 -0.173971,5.079 2.507034,0.0123 0.741249,2.30811 2.676609,0.0907 z"
       id="path41" />
    <path
       style="fill:#c8dffc;fill-opacity:1;stroke:#000000;stroke-width:0.471256;stroke-dasharray:none"
       d="m 93.302117,116.53936 -4.507923,0.1275 0.01135,5.65601 4.254865,-0.20352 z"
       id="path42" />
    <path
       style="fill:#57bcf9;fill-opacity:1;stroke:#000000;stroke-width:0.471256;stroke-dasharray:none"
       d="m 92.08882,115.1596 -6.153937,0.92269 -0.31124,11.32146 2.762714,0.17141 0.405216,-10.99141 4.841843,-0.13694 -0.600094,-0.48212 -1.505261,-0.0406 z"
       id="path44" />
    <path
       style="fill:#c8dffc;fill-opacity:1;stroke:#000000;stroke-width:0.471256;stroke-dasharray:none"
       d="m 88.445744,116.92302 0.07909,5.15501 -2.253968,0.0638 -0.08695,-5.40433 z"
       id="path43" />
    <path
       style="fill:#6a686c;fill-opacity:1;stroke:#000000;stroke-width:0.471256;stroke-dasharray:none"
       d="m 108.87203,128.98381 0.97694,0.56906 0.12038,3.81537 -16.501314,1.30206 -1.571998,-0.43288 -0.02318,-4.53415 3.121422,0.15039 z"
       id="path45" />
    <path
       style="fill:#fffec1;fill-opacity:1;stroke:#000000;stroke-width:0.471256;stroke-dasharray:none"
       d="m 99.219932,130.80818 0.05646,1.78846 -4.543565,0.36718 -0.06771,-2.14615 z"
       id="path46" />
    <path
       style="fill:#fffec1;fill-opacity:1;stroke:#000000;stroke-width:0.471256;stroke-dasharray:none"
       d="m 109.85273,129.67211 -1.78896,0.28926 -0.17558,2.03368 1.90873,-0.29265 z"
       id="path47" />
    <path
       style="fill:#57bcf9;fill-opacity:1;stroke:#000000;stroke-width:0.471256;stroke-dasharray:none"
       d="m 92.023329,134.47249 -0.842118,-0.0955 -0.734249,-4.27535 -0.973177,-0.44982 -1.44094,-0.0786 -1.530624,0.87865 -0.781929,1.81217 -0.209439,0.96062 -0.718596,0.0203 0.01819,-3.22261 1.624059,-1.71666 0.45649,-0.72892 3.959783,0.12668 0.790064,2.24505 0.0041,3.93799 z"
       id="path48" />
    <path
       style="fill:#57bcf9;fill-opacity:1;stroke:#000000;stroke-width:0.471256;stroke-dasharray:none"
       d="m 85.584253,124.15297 -1.672956,0.16665 0.02318,4.53415 1.912484,-0.17343 0.808274,-0.97756 -1.440953,-0.0786 z"
       id="path49" />
    <path
       style="fill:#57bcf9;fill-opacity:1;stroke:#000000;stroke-width:0.471256;stroke-dasharray:none"
       d="m 83.795298,124.44223 -19.536831,0.0752 -0.02196,3.10339 19.578204,1.23632 z"
       id="path50" />
    <ellipse
       style="fill:#6a686c;fill-opacity:1;stroke:#000000;stroke-width:0.471257;stroke-dasharray:none"
       id="path53-6"
       cx="-84.069962"
       cy="135.61882"
       rx="2.570713"
       ry="3.3348601"
       transform="matrix(-0.99960028,0.0282716,0.03153478,0.99950266,0,0)" />
    <ellipse
       style="fill:#ffffff;fill-opacity:1;stroke:#000000;stroke-width:0.471257;stroke-dasharray:none"
       id="path51"
       cx="-84.023247"
       cy="135.70894"
       rx="1.3179474"
       ry="1.7893456"
       transform="matrix(-0.99960028,0.0282716,0.03153478,0.99950266,0,0)" />
    <ellipse
       style="fill:#6a686c;fill-opacity:1;stroke:#000000;stroke-width:0.471257;stroke-dasharray:none"
       id="path53"
       cx="-66.831253"
       cy="133.41199"
       rx="2.2764547"
       ry="2.9822426"
       transform="matrix(-0.99960028,0.0282716,0.03153478,0.99950266,0,0)" />
    <ellipse
       style="fill:#ffffff;fill-opacity:1;stroke:#000000;stroke-width:0.471257;stroke-dasharray:none"
       id="path52"
       cx="-66.589157"
       cy="133.38278"
       rx="1.0847368"
       ry="1.4975097"
       transform="matrix(-0.99960028,0.0282716,0.03153478,0.99950266,0,0)" />
    <path
       style="fill:#6a686c;fill-opacity:1;stroke:#000000;stroke-width:0.471256;stroke-dasharray:none"
       d="m 102.25982,113.6989 -1.89595,-2.08568 -16.773156,0.015 0.508943,11.49619 -20.293865,0.29834 -0.05746,1.10413 19.927943,-0.19612 2.016936,-0.42454 0.209065,-7.99907 6.062386,-0.90647 0.262134,-0.46678 2.742996,-0.81259 z"
       id="path63"
       sodipodi:nodetypes="ccccccccccccc" />
    <path
       style="fill:#6a686c;fill-opacity:1;stroke:#000000;stroke-width:0.471256;stroke-dasharray:none"
       d="m 83.91431,117.24965 -19.130032,1.06701 -0.892086,4.91991 20.299674,-0.11476 z"
       id="path64"
       sodipodi:nodetypes="ccccc" />
    <path
       style="fill:#6a686c;fill-opacity:1;stroke:#000000;stroke-width:0.518726;stroke-dasharray:none"
       d="m 85.81652,128.79959 -1.132958,1.59341 -0.0011,2.63483 -9.068981,-0.81693 -0.155197,-2.24008 -0.386979,-1.55041 9.234794,0.71466 z"
       id="path65" />
    <path
       style="fill:#6a686c;fill-opacity:1;stroke:#000000;stroke-width:0.471256;stroke-dasharray:none"
       d="m 67.306193,127.87946 -0.05624,3.45905 -1.585281,-0.44908 0.08219,-2.63658 -0.815775,0.35234 -0.111167,-0.90238 z"
       id="path66" />
    <path
       style="fill:#6a686c;fill-opacity:1;stroke:#000000;stroke-width:0.471256;stroke-dasharray:none"
       d="m 67.721872,127.95003 -0.05885,3.3768 1.099955,0.79209 -0.785064,-1.29492 0.423042,-2.31694 0.557553,-0.67433 z"
       id="path67" />
    <path
       style="fill:#f5be50;fill-opacity:1;stroke:#000000;stroke-width:2.39884;stroke-dasharray:none"
       d="m 212.18176,143.85699 c 0.92189,-1.29028 2.41474,-3.15633 4.65403,-3.99606 2.2393,-0.83972 5.22493,-0.65312 6.90438,-1.67947 1.67946,-1.02635 2.05266,-3.26558 3.63884,-4.66513 1.58618,-1.39954 4.38521,-1.95935 6.43788,-3.079 2.05267,-1.11965 3.35889,-2.79907 5.03836,-3.6388 1.67947,-0.83972 3.73209,-0.83972 5.03833,-0.0933 1.30625,0.74644 1.86605,2.23925 3.35893,3.17229 1.49287,0.93303 3.91869,1.30623 5.03832,2.05266 1.11964,0.74644 0.93304,1.86605 1.39956,2.79908 0.46652,0.93304 1.58614,1.67945 2.79909,1.86605 1.21295,0.1866 2.51916,-0.1866 3.6388,0.0933 1.11964,0.27992 2.05265,1.21293 2.51916,2.23927 0.46652,1.02635 0.46652,2.14596 0.93305,2.98569 0.46652,0.83973 1.39953,1.39954 2.33257,1.95936 0.93304,0.55982 1.86604,1.11962 2.23925,1.67945 0.37321,0.55982 0.18661,1.11963 0.57623,1.63927 0.38962,0.51964 1.35542,0.99909 -8.28262,0.88982 -9.63803,-0.10927 -29.87911,-0.80724 -39.96106,-1.15623 -10.08194,-0.34899 -10.00443,-0.34899 -9.79018,-0.70625 0.21426,-0.35726 0.56519,-1.07175 1.48708,-2.36203 z"
       id="path68"
       inkscape:path-effect="#path-effect68"
       inkscape:original-d="m 211.61081,144.43277 c 1.49284,-1.86606 2.98569,-3.73211 4.47853,-5.59817 2.98575,0.18661 5.97138,0.37321 8.95707,0.55982 0.37322,-2.23931 0.74642,-4.47854 1.11963,-6.7178 2.79915,-0.55983 5.59818,-1.11964 8.39726,-1.67946 1.30626,-1.67948 2.61248,-3.3589 3.91872,-5.03835 2.0527,0 4.10532,0 6.15798,0 0.55983,1.49288 1.11964,2.98569 1.67945,4.47854 2.42593,0.37322 4.85175,0.74642 7.27763,1.11963 -0.18661,1.11966 -0.37322,2.23927 -0.55982,3.3589 1.11965,0.74644 2.23927,1.49285 3.3589,2.23927 1.30627,-0.37322 2.61248,-0.74642 3.91872,-1.11963 0.93304,0.93304 1.86605,1.86605 2.79908,2.79908 0,1.11966 0,2.23927 0,3.3589 0.93305,0.55983 1.86606,1.11964 2.79909,1.67945 0.93305,0.55983 1.86605,1.11964 2.79908,1.67945 -0.18661,0.55983 -0.3732,1.11964 -0.55981,1.67945 0.96584,0.47947 1.93164,0.95892 2.89745,1.43838 -20.24188,-0.698 -40.48296,-1.39597 -60.72445,-2.09395 0.0776,0 0.15511,0 0.23267,0 0.35094,-0.71452 0.70187,-1.42901 1.05282,-2.14351 z"
       transform="matrix(-0.27728163,0.00784233,0.00592775,0.18788137,141.30196,88.10041)" />
    <path
       style="fill:#f5be50;fill-opacity:1;stroke:#000000;stroke-width:0.471256;stroke-dasharray:none"
       d="M 84.070465,119.13671 64.631586,119.6865"
       id="path69" />
    <path
       style="fill:#6a686c;fill-opacity:1;stroke:#000000;stroke-width:0.525465;stroke-dasharray:none"
       d="m 95.112944,116.59784 -0.143123,5.44007 -2.410861,0.0682 -0.339802,-5.50877 z"
       id="path38"
       sodipodi:nodetypes="ccccc" />
  </g>
</svg>
