<?xml version="1.0" encoding="UTF-8" standalone="no"?>
<!-- Created with Inkscape (http://www.inkscape.org/) -->

<svg
   width="43.942337mm"
   height="32.656544mm"
   viewBox="0 0 43.942337 32.656544"
   version="1.1"
   id="svg5"
   xml:space="preserve"
   inkscape:version="1.3.2 (091e20e, 2023-11-25)"
   sodipodi:docname="logo_FLX.svg"
   xmlns:inkscape="http://www.inkscape.org/namespaces/inkscape"
   xmlns:sodipodi="http://sodipodi.sourceforge.net/DTD/sodipodi-0.dtd"
   xmlns="http://www.w3.org/2000/svg"
   xmlns:svg="http://www.w3.org/2000/svg"><sodipodi:namedview
     id="namedview7"
     pagecolor="#ffffff"
     bordercolor="#000000"
     borderopacity="0.25"
     inkscape:showpageshadow="2"
     inkscape:pageopacity="0.0"
     inkscape:pagecheckerboard="0"
     inkscape:deskcolor="#d1d1d1"
     inkscape:document-units="mm"
     showgrid="false"
     inkscape:zoom="1.0846737"
     inkscape:cx="28.580024"
     inkscape:cy="106.9446"
     inkscape:window-width="1440"
     inkscape:window-height="771"
     inkscape:window-x="0"
     inkscape:window-y="25"
     inkscape:window-maximized="0"
     inkscape:current-layer="layer1" /><defs
     id="defs2" /><g
     inkscape:label="Ebene 1"
     inkscape:groupmode="layer"
     id="layer1"
     transform="translate(-29.689682,-20.940773)"><path
       style="fill:#e9e3e3;fill-opacity:0.546559;fill-rule:evenodd;stroke:none;stroke-width:0.499998;stroke-miterlimit:4.8;stroke-dasharray:none;stroke-opacity:1;paint-order:markers fill stroke"
       d="M 33.190156,21.673172 30.732184,39.047639 54.856718,52.789262 69.240405,40.232279 56.950543,24.595235 Z"
       id="path5074-6" /><path
       sodipodi:type="star"
       style="fill:#e84756;fill-opacity:1;fill-rule:evenodd;stroke:#ff0000;stroke-width:0.264767;stroke-miterlimit:4.8;stroke-dasharray:none;stroke-opacity:1;paint-order:markers fill stroke"
       id="path3261-5"
       inkscape:flatsided="false"
       sodipodi:sides="5"
       sodipodi:cx="38.941448"
       sodipodi:cy="-29.256531"
       sodipodi:r1="1.7239165"
       sodipodi:r2="0.86195827"
       sodipodi:arg1="1.2120257"
       sodipodi:arg2="1.8403442"
       inkscape:rounded="0"
       inkscape:randomized="0"
       d="m 39.546756,-27.642377 -0.834844,-0.78332 -1.118565,0.243649 0.487001,-1.036042 -0.577379,-0.988527 1.135825,0.14301 0.761726,-0.854592 0.214979,1.124427 1.048151,0.46036 -1.002962,0.551925 z"
       inkscape:transform-center-x="-0.28762921"
       inkscape:transform-center-y="-0.041786088"
       transform="matrix(2.0275235,0,0,1.7589026,-9.420371,90.932818)" /><path
       style="fill:none;fill-opacity:1;fill-rule:evenodd;stroke:#a0a0a0;stroke-width:1;stroke-miterlimit:4.8;stroke-dasharray:none;stroke-opacity:1;paint-order:markers fill stroke"
       d="M 67.112323,42.239526 54.820617,52.985065 30.237203,38.740986 32.968697,21.498182 56.45951,24.49693 66.292875,36.491934"
       id="path4-7" /></g></svg>
